%!PS-Adobe-3.0 EPSF-3.0
%%Creator: PlantUML v1.2019.13      
%%Title: noTitle
%%BoundingBox: 0 0 488 586
%%ColorUsage: Color
%%Origin: 0 0
%%EndComments

gsave
0 586 translate
.01 -.01 scale
/simplerect {
newpath moveto 1 index 0 rlineto
0 exch rlineto
neg 0 rlineto
} def
/roundrect {
newpath
dup 3 index add 2 index 2 index add 2 index 180 270 arc
2 index 5 index add 1 index sub 2 index 2 index add 2 index 270 0 arc
2 index 5 index add 1 index sub 2 index 5 index add 2 index sub 2 index 0 90 arc
dup 3 index add 2 index 5 index add 2 index sub 2 index 90 180 arc
pop pop pop pop pop 
} def
/rquadto {
3 index 3 index 4 2 roll rcurveto
} def
/P$8 {
0 79 rlineto
-742 0 rlineto
9 167 100 254 rquadto
90 87 251 87 rquadto
92 0 179 -23 rquadto
87 -23 173 -68 rquadto
0 153 rlineto
-85 37 -177 56 rquadto
-91 18 -186 18 rquadto
-234 0 -371 -136 rquadto
-137 -136 -137 -371 rquadto
0 -242 130 -383 rquadto
130 -141 350 -141 rquadto
200 0 314 127 rquadto
114 127 114 347 rquadto
closepath
} def
/P$16 {
245 0 rlineto
0 579 rlineto
281 -281 rlineto
284 0 rlineto
-373 351 rlineto
403 414 rlineto
-296 0 rlineto
-298 -318 rlineto
0 318 rlineto
-245 0 rlineto
0 -1064 rlineto
} def
/P$1d {
139 0 rlineto
214 862 rlineto
214 -862 rlineto
156 0 rlineto
214 862 rlineto
214 -862 rlineto
140 0 rlineto
-256 1020 rlineto
-175 0 rlineto
-214 -885 rlineto
-217 885 rlineto
-175 0 rlineto
-254 -1020 rlineto
} def
/P$1h {
0 406 rlineto
-126 0 rlineto
0 -1056 rlineto
126 0 rlineto
0 115 rlineto
40 -67 100 -100 rquadto
60 -33 144 -33 rquadto
139 0 226 110 rquadto
87 110 87 290 rquadto
0 181 -87 292 rquadto
-87 110 -226 110 rquadto
-84 0 -144 -33 rquadto
-60 -33 -100 -102 rquadto
closepath
} def
/P$18 {
0 623 rlineto
93 0 rlineto
160 0 246 -80 rquadto
85 -80 85 -232 rquadto
0 -151 -84 -231 rquadto
-84 -79 -246 -79 rquadto
-93 0 rlineto
closepath
} def
/P$25 {
310 0 rlineto
171 0 260 77 rquadto
88 77 88 227 rquadto
0 151 -88 228 rquadto
-88 76 -260 76 rquadto
-173 0 rlineto
0 410 rlineto
-137 0 rlineto
0 -1020 rlineto
} def
/P$1j {
-151 0 -210 34 rquadto
-59 34 -59 118 rquadto
0 67 44 106 rquadto
44 39 119 39 rquadto
104 0 167 -74 rquadto
63 -74 63 -196 rquadto
0 -28 rlineto
-125 0 rlineto
closepath
} def
/P$o {
0 -70 -40 -113 rquadto
-40 -42 -106 -42 rquadto
-70 0 -114 39 rquadto
-44 39 -55 116 rquadto
317 0 rlineto
} def
/P$1z {
0 139 57 217 rquadto
57 78 157 78 rquadto
98 0 156 -78 rquadto
57 -78 57 -217 rquadto
0 -137 -57 -216 rquadto
-57 -78 -156 -78 rquadto
-100 0 -157 78 rquadto
-57 78 -57 216 rquadto
} def
/P$24 {
0 384 rlineto
173 0 rlineto
96 0 150 -50 rquadto
53 -50 53 -142 rquadto
0 -92 -53 -142 rquadto
-53 -50 -150 -50 rquadto
-173 0 rlineto
closepath
} def
/P$g {
0 -595 rlineto
160 0 rlineto
0 589 rlineto
0 140 54 210 rquadto
54 69 164 69 rquadto
131 0 207 -83 rquadto
75 -83 75 -227 rquadto
0 -557 rlineto
162 0 rlineto
0 984 rlineto
-162 0 rlineto
0 -151 rlineto
-59 90 -136 133 rquadto
-77 42 -180 42 rquadto
-170 0 -257 -105 rquadto
-87 -105 -87 -308 rquadto
} def
/P$12 {
50 -67 111 -99 rquadto
61 -32 141 -32 rquadto
142 0 232 112 rquadto
90 112 90 289 rquadto
0 178 -90 290 rquadto
-90 112 -232 112 rquadto
-79 0 -141 -32 rquadto
-61 -32 -111 -99 rquadto
0 110 rlineto
-245 0 rlineto
0 -1064 rlineto
245 0 rlineto
0 410 rlineto
} def
/P$n {
0 68 rlineto
-571 0 rlineto
9 85 62 129 rquadto
53 43 148 43 rquadto
78 0 159 -23 rquadto
81 -23 165 -70 rquadto
0 189 rlineto
-85 32 -172 50 rquadto
-86 17 -174 17 rquadto
-207 0 -322 -106 rquadto
-114 -106 -114 -296 rquadto
0 -185 112 -293 rquadto
112 -107 310 -107 rquadto
181 0 289 108 rquadto
107 108 107 291 rquadto
closepath
} def
/P$1b {
78 0 118 -33 rquadto
40 -33 40 -100 rquadto
0 -65 -39 -99 rquadto
-39 -33 -119 -33 rquadto
-154 0 rlineto
0 267 rlineto
154 0 rlineto
closepath
} def
/P$r {
710 0 rlineto
0 198 rlineto
-446 0 rlineto
0 190 rlineto
420 0 rlineto
0 198 rlineto
-420 0 rlineto
0 432 rlineto
-264 0 rlineto
0 -1020 rlineto
} def
/P$1m {
126 0 rlineto
0 628 rlineto
376 -329 rlineto
159 0 rlineto
-406 357 rlineto
423 407 rlineto
-164 0 rlineto
-389 -373 rlineto
0 373 rlineto
-126 0 rlineto
0 -1064 rlineto
} def
/P$19 {
278 0 rlineto
232 0 346 32 rquadto
113 32 194 112 rquadto
71 68 107 159 rquadto
35 90 35 204 rquadto
0 115 -35 206 rquadto
-35 90 -107 159 rquadto
-81 79 -196 112 rquadto
-114 32 -344 32 rquadto
-278 0 rlineto
0 -1020 rlineto
} def
/P$u {
-31 -14 -63 -21 rquadto
-32 -7 -64 -7 rquadto
-93 0 -144 60 rquadto
-50 60 -50 172 rquadto
0 353 rlineto
-245 0 rlineto
0 -765 rlineto
245 0 rlineto
0 125 rlineto
46 -75 107 -109 rquadto
60 -34 146 -34 rquadto
12 0 26 0 rquadto
14 0 42 5 rquadto
0 220 rlineto
} def
/P$q {
-31 -14 -63 -21 rquadto
-32 -7 -64 -7 rquadto
-93 0 -144 60 rquadto
-50 60 -50 172 rquadto
0 353 rlineto
-245 0 rlineto
0 -765 rlineto
245 0 rlineto
0 125 rlineto
46 -75 107 -109 rquadto
60 -34 146 -34 rquadto
12 0 26 0 rquadto
14 0 42 5 rquadto
0 220 rlineto
closepath
} def
/P$1r {
0 462 rlineto
-126 0 rlineto
0 -457 rlineto
0 -109 -42 -163 rquadto
-42 -53 -126 -53 rquadto
-101 0 -160 64 rquadto
-59 64 -59 177 rquadto
0 432 rlineto
-126 0 rlineto
0 -765 rlineto
126 0 rlineto
0 118 rlineto
45 -68 107 -103 rquadto
61 -34 141 -34 rquadto
131 0 199 82 rquadto
67 82 67 239 rquadto
} def
/P$6 {
473 0 rlineto
0 145 rlineto
-473 0 rlineto
0 -145 rlineto
} def
/P$1y {
0 -414 rlineto
125 0 rlineto
0 1064 rlineto
-125 0 rlineto
0 -115 rlineto
-39 68 -100 102 rquadto
-60 33 -145 33 rquadto
-139 0 -226 -110 rquadto
-87 -110 -87 -292 rquadto
0 -179 87 -290 rquadto
87 -110 226 -110 rquadto
84 0 145 33 rquadto
60 33 100 100 rquadto
closepath
} def
/P$14 {
0 437 rlineto
-246 0 rlineto
0 -114 rlineto
-48 70 -110 102 rquadto
-61 32 -149 32 rquadto
-120 0 -193 -69 rquadto
-73 -69 -73 -180 rquadto
0 -134 92 -197 rquadto
92 -63 290 -63 rquadto
143 0 rlineto
0 -18 rlineto
0 -57 -45 -85 rquadto
-45 -27 -142 -27 rquadto
-79 0 -146 15 rquadto
-67 15 -126 48 rquadto
0 -187 rlineto
79 -18 158 -28 rquadto
78 -10 158 -10 rquadto
207 0 299 82 rquadto
91 82 91 264 rquadto
} def
/P$1q {
0 120 rlineto
-53 -28 -110 -41 rquadto
-57 -13 -118 -13 rquadto
-93 0 -140 28 rquadto
-46 28 -46 85 rquadto
0 43 33 68 rquadto
33 25 135 46 rquadto
42 10 rlineto
134 28 190 80 rquadto
56 52 56 146 rquadto
0 106 -84 168 rquadto
-84 62 -231 62 rquadto
-62 0 -128 -12 rquadto
-66 -12 -139 -35 rquadto
0 -129 rlineto
68 35 136 53 rquadto
67 17 133 17 rquadto
89 0 136 -30 rquadto
47 -30 47 -85 rquadto
0 -51 -34 -78 rquadto
-34 -27 -151 -52 rquadto
-43 -10 rlineto
-115 -23 -167 -75 rquadto
-52 -51 -52 -139 rquadto
0 -109 76 -167 rquadto
76 -58 217 -58 rquadto
70 0 132 10 rquadto
61 10 113 30 rquadto
} def
/P$17 {
79 0 121 -57 rquadto
41 -57 41 -167 rquadto
0 -109 -41 -166 rquadto
-41 -57 -121 -57 rquadto
-76 0 -117 57 rquadto
-41 57 -41 166 rquadto
0 109 41 167 rquadto
41 57 117 57 rquadto
closepath
} def
/P$2b {
0 134 rlineto
-79 -37 -149 -55 rquadto
-69 -17 -135 -17 rquadto
-112 0 -173 43 rquadto
-60 43 -60 123 rquadto
0 68 40 103 rquadto
40 34 154 54 rquadto
82 17 rlineto
154 29 228 103 rquadto
73 74 73 199 rquadto
0 148 -99 225 rquadto
-99 76 -291 76 rquadto
-73 0 -154 -16 rquadto
-81 -16 -168 -49 rquadto
0 -142 rlineto
84 46 164 71 rquadto
80 24 158 24 rquadto
117 0 182 -46 rquadto
64 -46 64 -132 rquadto
0 -75 -46 -117 rquadto
-46 -42 -152 -64 rquadto
-84 -15 rlineto
-154 -31 -223 -96 rquadto
-68 -65 -68 -182 rquadto
0 -134 95 -212 rquadto
95 -78 262 -78 rquadto
71 0 146 13 rquadto
75 13 153 38 rquadto
} def
/P$1v {
0 373 rlineto
221 0 rlineto
110 0 164 -46 rquadto
53 -46 53 -141 rquadto
0 -95 -53 -140 rquadto
-53 -45 -164 -45 rquadto
-221 0 rlineto
closepath
} def
/P$22 {
-187 507 rlineto
376 0 rlineto
-189 -507 rlineto
closepath
} def
/P$1e {
126 0 rlineto
0 765 rlineto
-126 0 rlineto
0 -765 rlineto
closepath
} def
/P$2c {
-20 -12 -45 -17 rquadto
-25 -5 -54 -5 rquadto
-107 0 -164 69 rquadto
-57 69 -57 199 rquadto
0 403 rlineto
-126 0 rlineto
0 -765 rlineto
126 0 rlineto
0 118 rlineto
40 -70 103 -103 rquadto
63 -33 153 -33 rquadto
14 0 29 1 rquadto
15 1 34 6 rquadto
0 128 rlineto
} def
/P$2 {
160 0 rlineto
0 204 rlineto
-160 0 rlineto
0 -204 rlineto
} def
/P$v {
243 0 rlineto
190 529 rlineto
190 -529 rlineto
245 0 rlineto
-301 765 rlineto
-268 0 rlineto
-300 -765 rlineto
} def
/P$13 {
-76 0 -115 26 rquadto
-39 26 -39 76 rquadto
0 46 31 73 rquadto
31 26 87 26 rquadto
68 0 115 -50 rquadto
46 -50 46 -125 rquadto
0 -28 rlineto
-126 0 rlineto
closepath
} def
/P$28 {
0 -464 rlineto
126 0 rlineto
0 459 rlineto
0 107 42 162 rquadto
42 54 126 54 rquadto
101 0 160 -64 rquadto
59 -64 59 -177 rquadto
0 -434 rlineto
126 0 rlineto
0 765 rlineto
-126 0 rlineto
0 -117 rlineto
-45 68 -106 103 rquadto
-60 34 -140 34 rquadto
-131 0 -200 -82 rquadto
-68 -82 -68 -239 rquadto
} def
/P$b {
-196 0 -271 45 rquadto
-75 45 -75 153 rquadto
0 85 56 136 rquadto
56 50 154 50 rquadto
134 0 215 -95 rquadto
81 -95 81 -254 rquadto
0 -35 rlineto
-160 0 rlineto
closepath
} def
/P$26 {
137 0 rlineto
0 1020 rlineto
-137 0 rlineto
0 -1020 rlineto
} def
/P$w {
-71 37 -150 57 rquadto
-78 19 -163 19 rquadto
-256 0 -404 -142 rquadto
-148 -142 -148 -386 rquadto
0 -245 148 -387 rquadto
148 -142 404 -142 rquadto
84 0 163 18 rquadto
78 18 150 57 rquadto
0 210 rlineto
-73 -50 -144 -73 rquadto
-71 -23 -149 -23 rquadto
-140 0 -221 90 rquadto
-80 90 -80 248 rquadto
0 157 80 248 rquadto
80 90 221 90 rquadto
78 0 149 -23 rquadto
71 -23 144 -73 rquadto
0 210 rlineto
} def
/P$20 {
-62 54 -91 110 rquadto
-28 55 -28 114 rquadto
0 100 72 166 rquadto
72 66 182 66 rquadto
64 0 121 -21 rquadto
57 -21 107 -65 rquadto
-362 -370 rlineto
closepath
} def
/P$1s {
-100 0 -159 78 rquadto
-59 78 -59 216 rquadto
0 137 58 216 rquadto
58 78 160 78 rquadto
101 0 160 -78 rquadto
58 -78 58 -216 rquadto
0 -135 -58 -215 rquadto
-58 -79 -160 -79 rquadto
closepath
} def
/P$1f {
126 0 rlineto
0 159 rlineto
-126 0 rlineto
0 -159 rlineto
} def
/P$29 {
0 -137 -57 -216 rquadto
-57 -78 -157 -78 rquadto
-100 0 -157 78 rquadto
-57 78 -57 216 rquadto
0 139 57 217 rquadto
57 78 157 78 rquadto
100 0 157 -78 rquadto
57 -78 57 -217 rquadto
closepath
} def
/P$1n {
0 60 rlineto
-579 0 rlineto
9 129 78 197 rquadto
69 67 194 67 rquadto
73 0 141 -17 rquadto
67 -17 135 -53 rquadto
0 118 rlineto
-68 28 -139 43 rquadto
-71 15 -142 15 rquadto
-184 0 -291 -107 rquadto
-107 -107 -107 -288 rquadto
0 -189 101 -299 rquadto
101 -110 275 -110 rquadto
154 0 244 99 rquadto
89 99 89 271 rquadto
closepath
} def
/P$1t {
164 0 257 107 rquadto
93 107 93 294 rquadto
0 189 -93 296 rquadto
-93 107 -257 107 rquadto
-164 0 -257 -107 rquadto
-93 -107 -93 -296 rquadto
0 -187 93 -294 rquadto
93 -107 257 -107 rquadto
} def
/P$1p {
0 217 rlineto
259 0 rlineto
0 98 rlineto
-259 0 rlineto
0 415 rlineto
0 92 25 119 rquadto
25 27 103 27 rquadto
129 0 rlineto
0 104 rlineto
-129 0 rlineto
-145 0 -200 -54 rquadto
-55 -54 -55 -196 rquadto
0 -415 rlineto
-92 0 rlineto
0 -98 rlineto
92 0 rlineto
0 -217 rlineto
126 0 rlineto
} def
/P$1u {
-20 -12 -45 -17 rquadto
-25 -5 -54 -5 rquadto
-107 0 -164 69 rquadto
-57 69 -57 199 rquadto
0 403 rlineto
-126 0 rlineto
0 -765 rlineto
126 0 rlineto
0 118 rlineto
40 -70 103 -103 rquadto
63 -33 153 -33 rquadto
14 0 29 1 rquadto
15 1 34 6 rquadto
0 128 rlineto
closepath
} def
/P$10 {
79 0 121 -57 rquadto
41 -57 41 -167 rquadto
0 -109 -41 -166 rquadto
-41 -57 -121 -57 rquadto
-76 0 -117 57 rquadto
-41 57 -41 166 rquadto
0 109 41 167 rquadto
41 57 117 57 rquadto
} def
/P$3 {
0 -176 -72 -273 rquadto
-72 -96 -202 -96 rquadto
-131 0 -203 96 rquadto
-72 96 -72 273 rquadto
0 175 72 271 rquadto
72 96 203 96 rquadto
129 0 202 -96 rquadto
72 -96 72 -271 rquadto
closepath
} def
/P$p {
0 465 rlineto
-246 0 rlineto
0 -76 rlineto
0 -279 rlineto
0 -100 -3 -137 rquadto
-3 -37 -14 -54 rquadto
-14 -25 -39 -38 rquadto
-25 -13 -56 -13 rquadto
-76 0 -120 59 rquadto
-43 59 -43 164 rquadto
0 376 rlineto
-245 0 rlineto
0 -765 rlineto
245 0 rlineto
0 112 rlineto
54 -67 117 -99 rquadto
62 -32 137 -32 rquadto
132 0 201 81 rquadto
68 81 68 237 rquadto
} def
/P$k {
198 0 309 107 rquadto
110 107 110 294 rquadto
0 189 -110 296 rquadto
-110 107 -309 107 rquadto
-196 0 -308 -107 rquadto
-111 -107 -111 -296 rquadto
0 -187 111 -294 rquadto
111 -107 308 -107 rquadto
} def
/P$1k {
0 437 rlineto
-126 0 rlineto
0 -115 rlineto
-42 68 -107 102 rquadto
-64 33 -157 33 rquadto
-117 0 -186 -66 rquadto
-69 -66 -69 -177 rquadto
0 -128 86 -193 rquadto
86 -65 257 -65 rquadto
176 0 rlineto
0 -12 rlineto
0 -87 -57 -135 rquadto
-57 -47 -160 -47 rquadto
-65 0 -128 16 rquadto
-62 16 -118 47 rquadto
0 -117 rlineto
68 -26 133 -39 rquadto
64 -13 125 -13 rquadto
167 0 249 85 rquadto
82 85 82 260 rquadto
} def
/P$m {
0 185 rlineto
-78 -32 -151 -49 rquadto
-73 -16 -137 -16 rquadto
-70 0 -103 17 rquadto
-33 17 -33 53 rquadto
0 29 25 45 rquadto
25 15 92 23 rquadto
42 4 rlineto
189 25 253 79 rquadto
64 54 64 171 rquadto
0 121 -90 183 rquadto
-90 61 -268 61 rquadto
-76 0 -157 -12 rquadto
-80 -12 -166 -35 rquadto
0 -185 rlineto
73 35 150 53 rquadto
76 17 156 17 rquadto
71 0 107 -20 rquadto
35 -20 35 -59 rquadto
0 -32 -25 -48 rquadto
-25 -15 -98 -25 rquadto
-43 -6 rlineto
-164 -20 -229 -75 rquadto
-65 -55 -65 -167 rquadto
0 -121 83 -180 rquadto
83 -58 255 -58 rquadto
68 0 142 10 rquadto
74 10 161 32 rquadto
} def
/P$1a {
62 0 94 -27 rquadto
32 -27 32 -80 rquadto
0 -53 -32 -81 rquadto
-32 -28 -94 -28 rquadto
-145 0 rlineto
0 217 rlineto
145 0 rlineto
closepath
} def
/P$d {
-28 -15 -60 -23 rquadto
-32 -7 -71 -7 rquadto
-135 0 -209 89 rquadto
-73 89 -73 256 rquadto
0 518 rlineto
-162 0 rlineto
0 -984 rlineto
162 0 rlineto
0 153 rlineto
50 -90 132 -133 rquadto
82 -42 199 -42 rquadto
15 0 35 2 rquadto
20 2 45 5 rquadto
1 167 rlineto
} def
/P$e {
0 151 rlineto
-68 -37 -137 -56 rquadto
-68 -18 -139 -18 rquadto
-157 0 -244 99 rquadto
-86 99 -86 280 rquadto
0 179 86 279 rquadto
86 100 244 100 rquadto
70 0 139 -19 rquadto
68 -19 137 -57 rquadto
0 150 rlineto
-67 31 -139 46 rquadto
-72 15 -153 15 rquadto
-223 0 -353 -139 rquadto
-130 -139 -130 -375 rquadto
0 -242 132 -379 rquadto
132 -137 361 -137 rquadto
75 0 146 14 rquadto
71 14 138 46 rquadto
} def
/P$y {
0 -467 rlineto
246 0 rlineto
0 76 rlineto
0 62 0 156 rquadto
0 93 0 125 rquadto
0 92 4 132 rquadto
4 40 15 59 rquadto
15 23 39 36 rquadto
24 13 55 13 rquadto
76 0 120 -58 rquadto
43 -58 43 -163 rquadto
0 -378 rlineto
245 0 rlineto
0 765 rlineto
-245 0 rlineto
0 -110 rlineto
-54 67 -117 99 rquadto
-62 32 -135 32 rquadto
-132 0 -202 -81 rquadto
-69 -81 -69 -237 rquadto
} def
/P$h {
-1 -132 -74 -211 rquadto
-72 -78 -191 -78 rquadto
-135 0 -217 75 rquadto
-81 75 -93 214 rquadto
576 0 rlineto
closepath
} def
/P$1w {
0 307 rlineto
204 0 rlineto
101 0 150 -37 rquadto
49 -37 49 -115 rquadto
0 -78 -49 -116 rquadto
-49 -38 -150 -38 rquadto
-204 0 rlineto
closepath
} def
/P$11 {
78 0 119 -57 rquadto
41 -57 41 -167 rquadto
0 -109 -41 -166 rquadto
-41 -57 -119 -57 rquadto
-78 0 -120 57 rquadto
-42 57 -42 165 rquadto
0 109 42 167 rquadto
42 57 120 57 rquadto
closepath
} def
/P$15 {
0 200 rlineto
-50 -34 -100 -50 rquadto
-50 -16 -104 -16 rquadto
-101 0 -158 60 rquadto
-57 60 -57 166 rquadto
0 107 57 167 rquadto
57 60 158 60 rquadto
57 0 109 -17 rquadto
51 -17 95 -51 rquadto
0 201 rlineto
-57 20 -116 31 rquadto
-58 10 -117 10 rquadto
-207 0 -324 -106 rquadto
-116 -106 -116 -296 rquadto
0 -189 116 -295 rquadto
116 -106 324 -106 rquadto
59 0 117 10 rquadto
58 10 116 31 rquadto
} def
/P$2d {
139 0 rlineto
0 620 rlineto
0 164 59 235 rquadto
59 71 192 71 rquadto
132 0 192 -71 rquadto
59 -71 59 -235 rquadto
0 -620 rlineto
139 0 rlineto
0 637 rlineto
0 198 -98 300 rquadto
-98 102 -292 102 rquadto
-193 0 -292 -102 rquadto
-98 -102 -98 -300 rquadto
0 -637 rlineto
} def
/P$1c {
84 25 131 91 rquadto
46 66 46 163 rquadto
0 146 -100 219 rquadto
-100 72 -303 72 rquadto
-437 0 rlineto
0 -1020 rlineto
395 0 rlineto
212 0 307 64 rquadto
95 64 95 206 rquadto
0 73 -34 125 rquadto
-34 52 -101 77 rquadto
closepath
} def
/P$c {
0 560 rlineto
-160 0 rlineto
0 -150 rlineto
-56 90 -138 132 rquadto
-82 42 -202 42 rquadto
-151 0 -240 -84 rquadto
-89 -84 -89 -226 rquadto
0 -167 111 -251 rquadto
111 -84 332 -84 rquadto
226 0 rlineto
0 -15 rlineto
0 -110 -73 -171 rquadto
-73 -60 -206 -60 rquadto
-84 0 -164 19 rquadto
-79 19 -154 60 rquadto
0 -148 rlineto
89 -34 172 -51 rquadto
83 -17 163 -17 rquadto
212 0 317 110 rquadto
105 110 105 335 rquadto
} def
/P$21 {
346 354 rlineto
40 -60 63 -130 rquadto
22 -69 25 -146 rquadto
128 0 rlineto
-9 89 -44 177 rquadto
-35 88 -99 174 rquadto
190 195 rlineto
-171 0 rlineto
-98 -100 rlineto
-70 60 -148 90 rquadto
-78 29 -167 29 rquadto
-165 0 -270 -94 rquadto
-104 -94 -104 -241 rquadto
0 -87 46 -164 rquadto
46 -76 138 -143 rquadto
-32 -43 -50 -86 rquadto
-17 -42 -17 -83 rquadto
0 -110 75 -178 rquadto
75 -67 200 -67 rquadto
57 0 114 12 rquadto
56 12 114 35 rquadto
0 125 rlineto
-59 -31 -113 -48 rquadto
-53 -17 -100 -17 rquadto
-71 0 -116 38 rquadto
-44 38 -44 97 rquadto
0 34 20 70 rquadto
20 35 82 100 rquadto
} def
/P$23 {
157 0 rlineto
389 1020 rlineto
-143 0 rlineto
-93 -262 rlineto
-459 0 rlineto
-93 262 rlineto
-145 0 rlineto
389 -1020 rlineto
} def
/P$f {
0 279 rlineto
332 0 rlineto
0 125 rlineto
-332 0 rlineto
0 534 rlineto
0 120 32 154 rquadto
32 34 134 34 rquadto
165 0 rlineto
0 135 rlineto
-165 0 rlineto
-187 0 -258 -69 rquadto
-71 -69 -71 -255 rquadto
0 -534 rlineto
-118 0 rlineto
0 -125 rlineto
118 0 rlineto
0 -279 rlineto
162 0 rlineto
} def
/P$9 {
-1 -132 -74 -211 rquadto
-72 -78 -191 -78 rquadto
-135 0 -217 75 rquadto
-81 75 -93 214 rquadto
576 0 rlineto
} def
/P$x {
245 0 rlineto
0 1064 rlineto
-245 0 rlineto
0 -1064 rlineto
} def
/P$1i {
0 -137 -57 -216 rquadto
-57 -78 -157 -78 rquadto
-100 0 -157 78 rquadto
-57 78 -57 216 rquadto
0 139 57 217 rquadto
57 78 157 78 rquadto
100 0 157 -78 rquadto
57 -78 57 -217 rquadto
} def
/P$4 {
0 251 -111 374 rquadto
-111 122 -342 122 rquadto
-84 0 -160 -13 rquadto
-75 -13 -146 -39 rquadto
0 -156 rlineto
70 39 139 57 rquadto
69 17 141 17 rquadto
159 0 238 -82 rquadto
78 -82 78 -251 rquadto
0 -79 rlineto
-50 87 -128 130 rquadto
-78 42 -187 42 rquadto
-181 0 -291 -138 rquadto
-110 -138 -110 -364 rquadto
0 -229 110 -367 rquadto
110 -137 291 -137 rquadto
109 0 187 42 rquadto
78 42 128 130 rquadto
0 -150 rlineto
162 0 rlineto
0 862 rlineto
} def
/P$27 {
0 120 rlineto
-53 -28 -110 -41 rquadto
-57 -13 -118 -13 rquadto
-93 0 -140 28 rquadto
-46 28 -46 85 rquadto
0 43 33 68 rquadto
33 25 135 46 rquadto
42 10 rlineto
134 28 190 80 rquadto
56 52 56 146 rquadto
0 106 -84 168 rquadto
-84 62 -231 62 rquadto
-62 0 -128 -12 rquadto
-66 -12 -139 -35 rquadto
0 -129 rlineto
68 35 136 53 rquadto
67 17 133 17 rquadto
89 0 136 -30 rquadto
47 -30 47 -85 rquadto
0 -51 -34 -78 rquadto
-34 -27 -151 -52 rquadto
-43 -10 rlineto
-115 -23 -167 -75 rquadto
-52 -51 -52 -139 rquadto
0 -109 76 -167 rquadto
76 -58 217 -58 rquadto
70 0 132 10 rquadto
61 10 113 30 rquadto
closepath
} def
/P$1 {
160 0 rlineto
0 984 rlineto
-160 0 rlineto
0 -984 rlineto
closepath
} def
/P$s {
-51 67 -112 98 rquadto
-60 31 -140 31 rquadto
-139 0 -231 -110 rquadto
-92 -110 -92 -282 rquadto
0 -171 92 -281 rquadto
92 -109 231 -109 rquadto
79 0 140 31 rquadto
60 31 112 100 rquadto
0 -114 rlineto
245 0 rlineto
0 689 rlineto
0 184 -116 281 rquadto
-116 96 -338 96 rquadto
-71 0 -138 -10 rquadto
-66 -10 -135 -32 rquadto
0 -190 rlineto
64 37 125 55 rquadto
61 17 124 17 rquadto
120 0 176 -53 rquadto
56 -53 56 -164 rquadto
0 -53 rlineto
closepath
} def
/P$z {
0 -410 rlineto
245 0 rlineto
0 1064 rlineto
-245 0 rlineto
0 -110 rlineto
-51 67 -112 99 rquadto
-60 32 -140 32 rquadto
-140 0 -232 -112 rquadto
-91 -112 -91 -290 rquadto
0 -176 91 -289 rquadto
91 -112 232 -112 rquadto
79 0 140 32 rquadto
60 32 112 99 rquadto
closepath
} def
/P$1l {
0 117 rlineto
-53 -29 -107 -44 rquadto
-53 -14 -108 -14 rquadto
-121 0 -189 78 rquadto
-67 78 -67 217 rquadto
0 140 67 217 rquadto
67 77 189 77 rquadto
54 0 108 -14 rquadto
53 -14 107 -43 rquadto
0 115 rlineto
-53 25 -109 37 rquadto
-56 12 -118 12 rquadto
-173 0 -275 -108 rquadto
-102 -108 -102 -294 rquadto
0 -185 103 -293 rquadto
103 -107 282 -107 rquadto
57 0 113 11 rquadto
55 11 107 36 rquadto
} def
/P$j {
-81 0 -123 58 rquadto
-42 58 -42 167 rquadto
0 110 42 169 rquadto
42 58 123 58 rquadto
81 0 123 -58 rquadto
42 -58 42 -169 rquadto
0 -109 -42 -167 rquadto
-42 -58 -123 -58 rquadto
closepath
} def
/P$2a {
40 -67 100 -100 rquadto
60 -33 144 -33 rquadto
139 0 226 110 rquadto
87 110 87 290 rquadto
0 181 -87 292 rquadto
-87 110 -226 110 rquadto
-84 0 -144 -33 rquadto
-60 -33 -100 -102 rquadto
0 115 rlineto
-126 0 rlineto
0 -1064 rlineto
126 0 rlineto
0 414 rlineto
} def
/P$1x {
353 0 rlineto
157 0 242 65 rquadto
85 65 85 185 rquadto
0 93 -43 149 rquadto
-43 55 -128 69 rquadto
101 21 157 91 rquadto
56 69 56 172 rquadto
0 137 -92 211 rquadto
-92 74 -264 74 rquadto
-365 0 rlineto
0 -1020 rlineto
} def
/P$2e {
137 0 rlineto
0 1020 rlineto
-137 0 rlineto
0 -1020 rlineto
closepath
} def
/P$t {
-75 0 -117 56 rquadto
-42 56 -42 157 rquadto
0 106 40 160 rquadto
40 53 118 53 rquadto
76 0 119 -56 rquadto
42 -56 42 -157 rquadto
0 -101 -42 -157 rquadto
-42 -56 -119 -56 rquadto
} def
/P$a {
171 0 rlineto
307 826 rlineto
307 -826 rlineto
170 0 rlineto
-368 984 rlineto
-218 0 rlineto
-370 -984 rlineto
} def
/P$l {
940 0 rlineto
0 198 rlineto
-337 0 rlineto
0 821 rlineto
-264 0 rlineto
0 -821 rlineto
-339 0 rlineto
0 -198 rlineto
} def
/P$5 {
0 593 rlineto
-160 0 rlineto
0 -589 rlineto
0 -139 -54 -208 rquadto
-54 -69 -164 -69 rquadto
-131 0 -206 83 rquadto
-75 83 -75 227 rquadto
0 556 rlineto
-162 0 rlineto
0 -1367 rlineto
162 0 rlineto
0 535 rlineto
57 -89 136 -132 rquadto
78 -43 180 -43 rquadto
170 0 257 104 rquadto
86 104 86 309 rquadto
} def
/P$7 {
160 0 rlineto
0 1367 rlineto
-160 0 rlineto
0 -1367 rlineto
} def
/P$1o {
-1 -103 -57 -164 rquadto
-56 -61 -148 -61 rquadto
-106 0 -169 60 rquadto
-63 60 -72 167 rquadto
448 -1 rlineto
} def
/P$0 {
178 0 rlineto
0 537 rlineto
645 0 rlineto
0 -537 rlineto
176 0 rlineto
0 1312 rlineto
-176 0 rlineto
0 -625 rlineto
-645 0 rlineto
0 625 rlineto
-178 0 rlineto
0 -1312 rlineto
} def
/P$i {
264 0 rlineto
0 1020 rlineto
-264 0 rlineto
0 -1020 rlineto
} def
/P$1g {
585 0 rlineto
0 115 rlineto
-448 0 rlineto
0 301 rlineto
404 0 rlineto
0 115 rlineto
-404 0 rlineto
0 487 rlineto
-137 0 rlineto
0 -1020 rlineto
} def
0 setlinewidth
[] 0 setdash
0 0 0 setrgbcolor
newpath
15226 358 moveto
P$0
fill
0 setlinewidth
[] 0 setdash
0 0 0 setrgbcolor
newpath
16620 686 moveto
P$1
16620 303 moveto
P$2
fill
0 setlinewidth
[] 0 setdash
0 0 0 setrgbcolor
newpath
17767 1167 moveto
P$3
17929 1548 moveto
P$4
fill
0 setlinewidth
[] 0 setdash
0 0 0 setrgbcolor
newpath
19037 1077 moveto
P$5
fill
0 setlinewidth
[] 0 setdash
0 0 0 setrgbcolor
newpath
19237 1105 moveto
P$6
fill
0 setlinewidth
[] 0 setdash
0 0 0 setrgbcolor
newpath
20020 303 moveto
P$7
fill
0 setlinewidth
[] 0 setdash
0 0 0 setrgbcolor
newpath
21360 1137 moveto
P$8
21200 1091 moveto
P$9
fill
0 setlinewidth
[] 0 setdash
0 0 0 setrgbcolor
newpath
21503 686 moveto
P$a
fill
0 setlinewidth
[] 0 setdash
0 0 0 setrgbcolor
newpath
23560 1137 moveto
P$8
23400 1091 moveto
P$9
fill
0 setlinewidth
[] 0 setdash
0 0 0 setrgbcolor
newpath
23820 303 moveto
P$7
fill
0 setlinewidth
[] 0 setdash
0 0 0 setrgbcolor
newpath
25367 1175 moveto
P$b
25689 1109 moveto
P$c
fill
0 setlinewidth
[] 0 setdash
0 0 0 setrgbcolor
newpath
26490 837 moveto
P$d
fill
0 setlinewidth
[] 0 setdash
0 0 0 setrgbcolor
newpath
27428 723 moveto
P$e
fill
0 setlinewidth
[] 0 setdash
0 0 0 setrgbcolor
newpath
28437 1077 moveto
P$5
fill
0 setlinewidth
[] 0 setdash
0 0 0 setrgbcolor
newpath
28720 686 moveto
P$1
28720 303 moveto
P$2
fill
0 setlinewidth
[] 0 setdash
0 0 0 setrgbcolor
newpath
29379 406 moveto
P$f
fill
0 setlinewidth
[] 0 setdash
0 0 0 setrgbcolor
newpath
30760 1137 moveto
P$8
30600 1091 moveto
P$9
fill
0 setlinewidth
[] 0 setdash
0 0 0 setrgbcolor
newpath
31728 723 moveto
P$e
fill
0 setlinewidth
[] 0 setdash
0 0 0 setrgbcolor
newpath
32079 406 moveto
P$f
fill
0 setlinewidth
[] 0 setdash
0 0 0 setrgbcolor
newpath
32603 1281 moveto
P$g
fill
0 setlinewidth
[] 0 setdash
0 0 0 setrgbcolor
newpath
34290 837 moveto
P$d
fill
0 setlinewidth
[] 0 setdash
0 0 0 setrgbcolor
newpath
35360 1137 moveto
P$8
35200 1091 moveto
P$h
fill
0.78 0.78 0.78 setrgbcolor
newpath
11000 5695 moveto
1000 -1000 rlineto
17200 0 rlineto
0 8200 rlineto
-1000 1000 rlineto
-17200 0 rlineto
0 -8200 rlineto
11000 5695 lineto
closepath eofill
0.64 0.64 0.64 setrgbcolor
newpath
11050 5745 moveto
1000 -1000 rlineto
17100 0 rlineto
0 8100 rlineto
-1000 1000 rlineto
-17100 0 rlineto
0 -8100 rlineto
11050 5745 lineto
closepath eofill
0.49 0.49 0.49 setrgbcolor
newpath
11100 5795 moveto
1000 -1000 rlineto
17000 0 rlineto
0 8000 rlineto
-1000 1000 rlineto
-17000 0 rlineto
0 -8000 rlineto
11100 5795 lineto
closepath eofill
0.34 0.34 0.34 setrgbcolor
newpath
11150 5845 moveto
1000 -1000 rlineto
16900 0 rlineto
0 7900 rlineto
-1000 1000 rlineto
-16900 0 rlineto
0 -7900 rlineto
11150 5845 lineto
closepath eofill
0.2 0.2 0.2 setrgbcolor
newpath
11200 5895 moveto
1000 -1000 rlineto
16800 0 rlineto
0 7800 rlineto
-1000 1000 rlineto
-16800 0 rlineto
0 -7800 rlineto
11200 5895 lineto
closepath eofill
1 1 1 setrgbcolor
newpath
10800 5495 moveto
1000 -1000 rlineto
17200 0 rlineto
0 8200 rlineto
-1000 1000 rlineto
-17200 0 rlineto
0 -8200 rlineto
10800 5495 lineto
closepath eofill
100 setlinewidth
0 0 0 setrgbcolor
newpath
10800 5495 moveto
1000 -1000 rlineto
17200 0 rlineto
0 8200 rlineto
-1000 1000 rlineto
-17200 0 rlineto
0 -8200 rlineto
10800 5495 lineto
closepath stroke
150 setlinewidth
0 0 0 setrgbcolor
newpath
28000 5495 moveto
900 -900 rlineto
stroke
150 setlinewidth
0 0 0 setrgbcolor
newpath
10800 5495 moveto
17200 0 rlineto
stroke
150 setlinewidth
0 0 0 setrgbcolor
newpath
28000 5495 moveto
0 8200 rlineto
stroke
0 setlinewidth
[] 0 setdash
0 0 0 setrgbcolor
newpath
15428 6074 moveto
P$i
fill
0 setlinewidth
[] 0 setdash
0 0 0 setrgbcolor
newpath
16181 6485 moveto
P$j
16181 6310 moveto
P$k
fill
0 setlinewidth
[] 0 setdash
0 0 0 setrgbcolor
newpath
16706 6074 moveto
P$l
fill
0 setlinewidth
[] 0 setdash
0 0 0 setrgbcolor
newpath
18915 6352 moveto
P$m
fill
0 setlinewidth
[] 0 setdash
0 0 0 setrgbcolor
newpath
19981 6710 moveto
P$n
19729 6629 moveto
P$o
fill
0 setlinewidth
[] 0 setdash
0 0 0 setrgbcolor
newpath
20987 6629 moveto
P$p
fill
0 setlinewidth
[] 0 setdash
0 0 0 setrgbcolor
newpath
21815 6352 moveto
P$m
fill
0 setlinewidth
[] 0 setdash
0 0 0 setrgbcolor
newpath
22481 6485 moveto
P$j
22481 6310 moveto
P$k
fill
0 setlinewidth
[] 0 setdash
0 0 0 setrgbcolor
newpath
23685 6537 moveto
P$q
fill
0.78 0.78 0.78 setrgbcolor
newpath
2400 17295 moveto
1000 -1000 rlineto
24500 0 rlineto
0 17800 rlineto
-1000 1000 rlineto
-24500 0 rlineto
0 -17800 rlineto
2400 17295 lineto
closepath eofill
0.64 0.64 0.64 setrgbcolor
newpath
2450 17345 moveto
1000 -1000 rlineto
24400 0 rlineto
0 17700 rlineto
-1000 1000 rlineto
-24400 0 rlineto
0 -17700 rlineto
2450 17345 lineto
closepath eofill
0.49 0.49 0.49 setrgbcolor
newpath
2500 17395 moveto
1000 -1000 rlineto
24300 0 rlineto
0 17600 rlineto
-1000 1000 rlineto
-24300 0 rlineto
0 -17600 rlineto
2500 17395 lineto
closepath eofill
0.34 0.34 0.34 setrgbcolor
newpath
2550 17445 moveto
1000 -1000 rlineto
24200 0 rlineto
0 17500 rlineto
-1000 1000 rlineto
-24200 0 rlineto
0 -17500 rlineto
2550 17445 lineto
closepath eofill
0.2 0.2 0.2 setrgbcolor
newpath
2600 17495 moveto
1000 -1000 rlineto
24100 0 rlineto
0 17400 rlineto
-1000 1000 rlineto
-24100 0 rlineto
0 -17400 rlineto
2600 17495 lineto
closepath eofill
1 1 1 setrgbcolor
newpath
2200 17095 moveto
1000 -1000 rlineto
24500 0 rlineto
0 17800 rlineto
-1000 1000 rlineto
-24500 0 rlineto
0 -17800 rlineto
2200 17095 lineto
closepath eofill
150 setlinewidth
0 0 0 setrgbcolor
newpath
2200 17095 moveto
1000 -1000 rlineto
24500 0 rlineto
0 17800 rlineto
-1000 1000 rlineto
-24500 0 rlineto
0 -17800 rlineto
2200 17095 lineto
closepath stroke
150 setlinewidth
0 0 0 setrgbcolor
newpath
26700 17095 moveto
900 -900 rlineto
stroke
150 setlinewidth
0 0 0 setrgbcolor
newpath
2200 17095 moveto
24500 0 rlineto
stroke
150 setlinewidth
0 0 0 setrgbcolor
newpath
26700 17095 moveto
0 17800 rlineto
stroke
0 setlinewidth
[] 0 setdash
0 0 0 setrgbcolor
newpath
10378 17674 moveto
P$r
fill
0 setlinewidth
[] 0 setdash
0 0 0 setrgbcolor
newpath
11631 18085 moveto
P$j
11631 17910 moveto
P$k
fill
0 setlinewidth
[] 0 setdash
0 0 0 setrgbcolor
newpath
12789 18565 moveto
P$s
12626 18088 moveto
P$t
fill
0 setlinewidth
[] 0 setdash
0 0 0 setrgbcolor
newpath
14365 17952 moveto
P$m
fill
0 setlinewidth
[] 0 setdash
0 0 0 setrgbcolor
newpath
15431 18310 moveto
P$n
15179 18229 moveto
P$o
fill
0 setlinewidth
[] 0 setdash
0 0 0 setrgbcolor
newpath
16235 18137 moveto
P$u
fill
0 setlinewidth
[] 0 setdash
0 0 0 setrgbcolor
newpath
16271 17929 moveto
P$v
fill
0 setlinewidth
[] 0 setdash
0 0 0 setrgbcolor
newpath
18031 18310 moveto
P$n
17779 18229 moveto
P$o
fill
0 setlinewidth
[] 0 setdash
0 0 0 setrgbcolor
newpath
18835 18137 moveto
P$q
fill
1 1 1 setrgbcolor
newpath
31617 27361 moveto
32243 26137 33182 25949 33984 27192 curveto
34722 25982 35443 25719 36436 26935 curveto
37243 25900 38061 25681 38833 26970 curveto
39525 25846 40301 25900 40958 27003 curveto
41766 25793 42735 25892 43389 27154 curveto
44656 25919 45569 26043 46300 27695 curveto
46443 27577 46562 27628 46599 27803 curveto
47572 28425 47347 29121 46558 29705 curveto
47574 30196 47791 31091 46888 31875 curveto
47839 32416 48091 33404 46954 34009 curveto
47669 34468 47841 35182 47023 35702 curveto
48299 36294 48176 37074 47366 37980 curveto
48399 38522 48284 39211 47454 39842 curveto
48378 40385 48584 40942 47687 41711 curveto
48754 42640 48747 43334 47420 43982 curveto
48054 44625 48058 45427 47029 45690 curveto
47959 46368 47893 47123 46993 47769 curveto
48008 48295 47995 49157 47074 49763 curveto
47929 50464 47982 51142 46905 51671 curveto
48007 52401 47778 53190 46826 53846 curveto
47775 55123 47191 56290 45600 56295 curveto
45671 56181 45798 56169 45863 56302 curveto
45429 57509 44310 57564 43547 56664 curveto
43117 57958 42083 58002 41298 57014 curveto
40818 58288 39623 58517 38826 57332 curveto
38122 58524 37073 58444 36522 57189 curveto
35640 58273 34693 58159 34115 56879 curveto
32344 58114 31335 57705 30900 55595 curveto
31074 55682 31105 55836 30935 55958 curveto
29941 55359 29860 54439 30994 53901 curveto
29921 53323 29938 52445 30938 51812 curveto
30025 51161 30196 50411 31097 49912 curveto
29984 49380 30080 48472 31026 47869 curveto
29966 47354 29921 46657 30757 45885 curveto
29660 45437 29585 44399 30587 43783 curveto
29530 43203 29581 42414 30541 41787 curveto
29719 41222 29546 40234 30667 39793 curveto
29824 39185 29763 38184 30819 37715 curveto
30053 37131 29925 36574 30711 35897 curveto
29618 35245 29646 34382 30782 33805 curveto
29795 33323 29915 32381 30778 31895 curveto
29645 31193 29878 30348 30866 29732 curveto
29601 28508 29932 27434 31600 26995 curveto
31755 27102 31777 27238 31617 27361 curveto
closepath eofill
150 setlinewidth
0 0 0 setrgbcolor
newpath
31617 27361 moveto
32243 26137 33182 25949 33984 27192 curveto
34722 25982 35443 25719 36436 26935 curveto
37243 25900 38061 25681 38833 26970 curveto
39525 25846 40301 25900 40958 27003 curveto
41766 25793 42735 25892 43389 27154 curveto
44656 25919 45569 26043 46300 27695 curveto
46443 27577 46562 27628 46599 27803 curveto
47572 28425 47347 29121 46558 29705 curveto
47574 30196 47791 31091 46888 31875 curveto
47839 32416 48091 33404 46954 34009 curveto
47669 34468 47841 35182 47023 35702 curveto
48299 36294 48176 37074 47366 37980 curveto
48399 38522 48284 39211 47454 39842 curveto
48378 40385 48584 40942 47687 41711 curveto
48754 42640 48747 43334 47420 43982 curveto
48054 44625 48058 45427 47029 45690 curveto
47959 46368 47893 47123 46993 47769 curveto
48008 48295 47995 49157 47074 49763 curveto
47929 50464 47982 51142 46905 51671 curveto
48007 52401 47778 53190 46826 53846 curveto
47775 55123 47191 56290 45600 56295 curveto
45671 56181 45798 56169 45863 56302 curveto
45429 57509 44310 57564 43547 56664 curveto
43117 57958 42083 58002 41298 57014 curveto
40818 58288 39623 58517 38826 57332 curveto
38122 58524 37073 58444 36522 57189 curveto
35640 58273 34693 58159 34115 56879 curveto
32344 58114 31335 57705 30900 55595 curveto
31074 55682 31105 55836 30935 55958 curveto
29941 55359 29860 54439 30994 53901 curveto
29921 53323 29938 52445 30938 51812 curveto
30025 51161 30196 50411 31097 49912 curveto
29984 49380 30080 48472 31026 47869 curveto
29966 47354 29921 46657 30757 45885 curveto
29660 45437 29585 44399 30587 43783 curveto
29530 43203 29581 42414 30541 41787 curveto
29719 41222 29546 40234 30667 39793 curveto
29824 39185 29763 38184 30819 37715 curveto
30053 37131 29925 36574 30711 35897 curveto
29618 35245 29646 34382 30782 33805 curveto
29795 33323 29915 32381 30778 31895 curveto
29645 31193 29878 30348 30866 29732 curveto
29601 28508 29932 27434 31600 26995 curveto
31755 27102 31777 27238 31617 27361 curveto
stroke
0 setlinewidth
[] 0 setdash
0 0 0 setrgbcolor
newpath
33687 28738 moveto
P$w
fill
0 setlinewidth
[] 0 setdash
0 0 0 setrgbcolor
newpath
33967 27730 moveto
P$x
fill
0 setlinewidth
[] 0 setdash
0 0 0 setrgbcolor
newpath
34731 28185 moveto
P$j
34731 28010 moveto
P$k
fill
0 setlinewidth
[] 0 setdash
0 0 0 setrgbcolor
newpath
35359 28496 moveto
P$y
fill
0 setlinewidth
[] 0 setdash
0 0 0 setrgbcolor
newpath
36889 28141 moveto
P$z
36726 28637 moveto
P$10
fill
0 setlinewidth
[] 0 setdash
0 0 0 setrgbcolor
newpath
38275 28637 moveto
P$11
38112 28141 moveto
P$12
fill
0 setlinewidth
[] 0 setdash
0 0 0 setrgbcolor
newpath
39210 28449 moveto
P$13
39584 28357 moveto
P$14
fill
0 setlinewidth
[] 0 setdash
0 0 0 setrgbcolor
newpath
40385 28052 moveto
P$15
fill
0 setlinewidth
[] 0 setdash
0 0 0 setrgbcolor
newpath
40667 27730 moveto
P$16
fill
0 setlinewidth
[] 0 setdash
0 0 0 setrgbcolor
newpath
42331 28410 moveto
P$n
42079 28329 moveto
P$o
fill
0 setlinewidth
[] 0 setdash
0 0 0 setrgbcolor
newpath
43337 28329 moveto
P$p
fill
0 setlinewidth
[] 0 setdash
0 0 0 setrgbcolor
newpath
44089 28141 moveto
P$z
43926 28637 moveto
P$17
fill
1 1 1 setrgbcolor
newpath
32500 45495 moveto
32500 44495 38600 44495 38600 44495 curveto
38600 44495 44700 44495 44700 45495 curveto
44700 53695 lineto
44700 54695 38600 54695 38600 54695 curveto
38600 54695 32500 54695 32500 53695 curveto
32500 45495 lineto
closepath eofill
150 setlinewidth
0 0 0 setrgbcolor
newpath
32500 45495 moveto
32500 44495 38600 44495 38600 44495 curveto
38600 44495 44700 44495 44700 45495 curveto
44700 53695 lineto
44700 54695 38600 54695 38600 54695 curveto
38600 54695 32500 54695 32500 53695 curveto
32500 45495 lineto
stroke
150 setlinewidth
0 0 0 setrgbcolor
newpath
32500 45495 moveto
32500 46495 38600 46495 38600 46495 curveto
38600 46495 44700 46495 44700 45495 curveto
stroke
0 setlinewidth
[] 0 setdash
0 0 0 setrgbcolor
newpath
35987 47938 moveto
P$w
fill
0 setlinewidth
[] 0 setdash
0 0 0 setrgbcolor
newpath
36267 46930 moveto
P$x
fill
0 setlinewidth
[] 0 setdash
0 0 0 setrgbcolor
newpath
37031 47385 moveto
P$j
37031 47210 moveto
P$k
fill
0 setlinewidth
[] 0 setdash
0 0 0 setrgbcolor
newpath
37659 47696 moveto
P$y
fill
0 setlinewidth
[] 0 setdash
0 0 0 setrgbcolor
newpath
39189 47341 moveto
P$z
39026 47837 moveto
P$10
fill
0 setlinewidth
[] 0 setdash
0 0 0 setrgbcolor
newpath
40442 47172 moveto
P$18
40178 46974 moveto
P$19
fill
0 setlinewidth
[] 0 setdash
0 0 0 setrgbcolor
newpath
41687 47369 moveto
P$1a
41696 47815 moveto
P$1b
41940 47447 moveto
P$1c
fill
0.78 0.78 0.78 setrgbcolor
15000 3629 12800 8895 100 roundrect
closepath eofill
0.71 0.71 0.71 setrgbcolor
14900 3529 12850 8945 100 roundrect
closepath eofill
0.64 0.64 0.64 setrgbcolor
14800 3429 12900 8995 100 roundrect
closepath eofill
0.56 0.56 0.56 setrgbcolor
14700 3329 12950 9045 100 roundrect
closepath eofill
0.49 0.49 0.49 setrgbcolor
14600 3229 13000 9095 100 roundrect
closepath eofill
0.42 0.42 0.42 setrgbcolor
14500 3129 13050 9145 100 roundrect
closepath eofill
0.34 0.34 0.34 setrgbcolor
14400 3029 13100 9195 100 roundrect
closepath eofill
0.27 0.27 0.27 setrgbcolor
14300 2929 13150 9245 100 roundrect
closepath eofill
0.2 0.2 0.2 setrgbcolor
14200 2829 13200 9295 100 roundrect
closepath eofill
1 1 0.81 setrgbcolor
15000 3629 12400 8495 simplerect
closepath eofill
150 setlinewidth
0.66 0 0.21 setrgbcolor
15000 3629 12400 8495 simplerect
closepath stroke
1 1 0.81 setrgbcolor
1000 500 11900 8995 simplerect
closepath eofill
150 setlinewidth
0.66 0 0.21 setrgbcolor
1000 500 11900 8995 simplerect
closepath stroke
1 1 0.81 setrgbcolor
1000 500 11900 11125 simplerect
closepath eofill
150 setlinewidth
0.66 0 0.21 setrgbcolor
1000 500 11900 11125 simplerect
closepath stroke
0 setlinewidth
[] 0 setdash
0 0 0 setrgbcolor
newpath
13446 9774 moveto
P$1d
fill
0 setlinewidth
[] 0 setdash
0 0 0 setrgbcolor
newpath
14831 10029 moveto
P$1e
14831 9730 moveto
P$1f
fill
0 setlinewidth
[] 0 setdash
0 0 0 setrgbcolor
newpath
15137 9774 moveto
P$1g
fill
0 setlinewidth
[] 0 setdash
0 0 0 setrgbcolor
newpath
15931 10029 moveto
P$1e
15931 9730 moveto
P$1f
fill
0 setlinewidth
[] 0 setdash
0 0 0 setrgbcolor
newpath
16753 10679 moveto
P$1h
17181 10412 moveto
P$1i
fill
0 setlinewidth
[] 0 setdash
0 0 0 setrgbcolor
newpath
17879 10410 moveto
P$1j
18131 10357 moveto
P$1k
fill
0 setlinewidth
[] 0 setdash
0 0 0 setrgbcolor
newpath
18882 10058 moveto
P$1l
fill
0 setlinewidth
[] 0 setdash
0 0 0 setrgbcolor
newpath
19126 9730 moveto
P$1m
fill
0 setlinewidth
[] 0 setdash
0 0 0 setrgbcolor
newpath
20587 10380 moveto
P$1n
20460 10343 moveto
P$1o
fill
0 setlinewidth
[] 0 setdash
0 0 0 setrgbcolor
newpath
20956 9812 moveto
P$1p
fill
0 setlinewidth
[] 0 setdash
0 0 0 setrgbcolor
newpath
22220 10051 moveto
P$1q
fill
0 setlinewidth
[] 0 setdash
0 0 0 setrgbcolor
newpath
23187 10380 moveto
P$1n
23060 10343 moveto
P$1o
fill
0 setlinewidth
[] 0 setdash
0 0 0 setrgbcolor
newpath
24068 10332 moveto
P$1r
fill
0 setlinewidth
[] 0 setdash
0 0 0 setrgbcolor
newpath
24820 10051 moveto
P$1q
fill
0 setlinewidth
[] 0 setdash
0 0 0 setrgbcolor
newpath
25428 10116 moveto
P$1s
25428 10010 moveto
P$1t
fill
0 setlinewidth
[] 0 setdash
0 0 0 setrgbcolor
newpath
26475 10146 moveto
P$1u
fill
0.78 0.78 0.78 setrgbcolor
13000 3629 13500 30095 100 roundrect
closepath eofill
0.71 0.71 0.71 setrgbcolor
12900 3529 13550 30145 100 roundrect
closepath eofill
0.64 0.64 0.64 setrgbcolor
12800 3429 13600 30195 100 roundrect
closepath eofill
0.56 0.56 0.56 setrgbcolor
12700 3329 13650 30245 100 roundrect
closepath eofill
0.49 0.49 0.49 setrgbcolor
12600 3229 13700 30295 100 roundrect
closepath eofill
0.42 0.42 0.42 setrgbcolor
12500 3129 13750 30345 100 roundrect
closepath eofill
0.34 0.34 0.34 setrgbcolor
12400 3029 13800 30395 100 roundrect
closepath eofill
0.27 0.27 0.27 setrgbcolor
12300 2929 13850 30445 100 roundrect
closepath eofill
0.2 0.2 0.2 setrgbcolor
12200 2829 13900 30495 100 roundrect
closepath eofill
1 1 0.81 setrgbcolor
13000 3629 13100 29695 simplerect
closepath eofill
150 setlinewidth
0.66 0 0.21 setrgbcolor
13000 3629 13100 29695 simplerect
closepath stroke
1 1 0.81 setrgbcolor
1000 500 12600 30195 simplerect
closepath eofill
150 setlinewidth
0.66 0 0.21 setrgbcolor
1000 500 12600 30195 simplerect
closepath stroke
1 1 0.81 setrgbcolor
1000 500 12600 32325 simplerect
closepath eofill
150 setlinewidth
0.66 0 0.21 setrgbcolor
1000 500 12600 32325 simplerect
closepath stroke
0 setlinewidth
[] 0 setdash
0 0 0 setrgbcolor
newpath
14375 31507 moveto
P$1v
14375 31087 moveto
P$1w
14237 30974 moveto
P$1x
fill
0 setlinewidth
[] 0 setdash
0 0 0 setrgbcolor
newpath
15579 31610 moveto
P$1j
15831 31557 moveto
P$1k
fill
0 setlinewidth
[] 0 setdash
0 0 0 setrgbcolor
newpath
16582 31258 moveto
P$1l
fill
0 setlinewidth
[] 0 setdash
0 0 0 setrgbcolor
newpath
16826 30930 moveto
P$1m
fill
0 setlinewidth
[] 0 setdash
0 0 0 setrgbcolor
newpath
18287 31580 moveto
P$1n
18160 31543 moveto
P$1o
fill
0 setlinewidth
[] 0 setdash
0 0 0 setrgbcolor
newpath
19168 31532 moveto
P$1r
fill
0 setlinewidth
[] 0 setdash
0 0 0 setrgbcolor
newpath
19935 31344 moveto
P$1y
19507 31612 moveto
P$1z
fill
0 setlinewidth
[] 0 setdash
0 0 0 setrgbcolor
newpath
20940 31446 moveto
P$20
21037 31369 moveto
P$21
fill
0 setlinewidth
[] 0 setdash
0 0 0 setrgbcolor
newpath
22678 31110 moveto
P$22
22600 30974 moveto
P$23
fill
0 setlinewidth
[] 0 setdash
0 0 0 setrgbcolor
newpath
23375 31087 moveto
P$24
23237 30974 moveto
P$25
fill
0 setlinewidth
[] 0 setdash
0 0 0 setrgbcolor
newpath
24137 30974 moveto
P$26
fill
0 setlinewidth
[] 0 setdash
0 0 0 setrgbcolor
newpath
24920 31251 moveto
P$27
fill
0.78 0.78 0.78 setrgbcolor
12300 3629 14150 20495 100 roundrect
closepath eofill
0.71 0.71 0.71 setrgbcolor
12200 3529 14200 20545 100 roundrect
closepath eofill
0.64 0.64 0.64 setrgbcolor
12100 3429 14250 20595 100 roundrect
closepath eofill
0.56 0.56 0.56 setrgbcolor
12000 3329 14300 20645 100 roundrect
closepath eofill
0.49 0.49 0.49 setrgbcolor
11900 3229 14350 20695 100 roundrect
closepath eofill
0.42 0.42 0.42 setrgbcolor
11800 3129 14400 20745 100 roundrect
closepath eofill
0.34 0.34 0.34 setrgbcolor
11700 3029 14450 20795 100 roundrect
closepath eofill
0.27 0.27 0.27 setrgbcolor
11600 2929 14500 20845 100 roundrect
closepath eofill
0.2 0.2 0.2 setrgbcolor
11500 2829 14550 20895 100 roundrect
closepath eofill
1 1 0.81 setrgbcolor
12300 3629 13750 20095 simplerect
closepath eofill
150 setlinewidth
0.66 0 0.21 setrgbcolor
12300 3629 13750 20095 simplerect
closepath stroke
1 1 0.81 setrgbcolor
1000 500 13250 20595 simplerect
closepath eofill
150 setlinewidth
0.66 0 0.21 setrgbcolor
1000 500 13250 20595 simplerect
closepath stroke
1 1 0.81 setrgbcolor
1000 500 13250 22725 simplerect
closepath eofill
150 setlinewidth
0.66 0 0.21 setrgbcolor
1000 500 13250 22725 simplerect
closepath stroke
0 setlinewidth
[] 0 setdash
0 0 0 setrgbcolor
newpath
15025 21487 moveto
P$24
14887 21374 moveto
P$25
fill
0 setlinewidth
[] 0 setdash
0 0 0 setrgbcolor
newpath
15768 22093 moveto
P$28
fill
0 setlinewidth
[] 0 setdash
0 0 0 setrgbcolor
newpath
17231 22012 moveto
P$29
16803 21744 moveto
P$2a
fill
0 setlinewidth
[] 0 setdash
0 0 0 setrgbcolor
newpath
18200 21407 moveto
P$2b
fill
0 setlinewidth
[] 0 setdash
0 0 0 setrgbcolor
newpath
18468 22093 moveto
P$28
fill
0 setlinewidth
[] 0 setdash
0 0 0 setrgbcolor
newpath
19931 22012 moveto
P$29
19503 21744 moveto
P$2a
fill
0 setlinewidth
[] 0 setdash
0 0 0 setrgbcolor
newpath
21231 22012 moveto
P$29
20803 21744 moveto
P$2a
fill
0 setlinewidth
[] 0 setdash
0 0 0 setrgbcolor
newpath
22025 21746 moveto
P$2c
fill
0 setlinewidth
[] 0 setdash
0 0 0 setrgbcolor
newpath
22378 21716 moveto
P$1s
22378 21610 moveto
P$1t
fill
0 setlinewidth
[] 0 setdash
0 0 0 setrgbcolor
newpath
22976 21330 moveto
P$1m
fill
0 setlinewidth
[] 0 setdash
0 0 0 setrgbcolor
newpath
24437 21980 moveto
P$1n
24310 21943 moveto
P$1o
fill
0 setlinewidth
[] 0 setdash
0 0 0 setrgbcolor
newpath
25125 21746 moveto
P$1u
fill
0.78 0.78 0.78 setrgbcolor
6400 3629 4200 20495 100 roundrect
closepath eofill
0.71 0.71 0.71 setrgbcolor
6300 3529 4250 20545 100 roundrect
closepath eofill
0.64 0.64 0.64 setrgbcolor
6200 3429 4300 20595 100 roundrect
closepath eofill
0.56 0.56 0.56 setrgbcolor
6100 3329 4350 20645 100 roundrect
closepath eofill
0.49 0.49 0.49 setrgbcolor
6000 3229 4400 20695 100 roundrect
closepath eofill
0.42 0.42 0.42 setrgbcolor
5900 3129 4450 20745 100 roundrect
closepath eofill
0.34 0.34 0.34 setrgbcolor
5800 3029 4500 20795 100 roundrect
closepath eofill
0.27 0.27 0.27 setrgbcolor
5700 2929 4550 20845 100 roundrect
closepath eofill
0.2 0.2 0.2 setrgbcolor
5600 2829 4600 20895 100 roundrect
closepath eofill
1 1 0.81 setrgbcolor
6400 3629 3800 20095 simplerect
closepath eofill
150 setlinewidth
0.66 0 0.21 setrgbcolor
6400 3629 3800 20095 simplerect
closepath stroke
1 1 0.81 setrgbcolor
1000 500 3300 20595 simplerect
closepath eofill
150 setlinewidth
0.66 0 0.21 setrgbcolor
1000 500 3300 20595 simplerect
closepath stroke
1 1 0.81 setrgbcolor
1000 500 3300 22725 simplerect
closepath eofill
150 setlinewidth
0.66 0 0.21 setrgbcolor
1000 500 3300 22725 simplerect
closepath stroke
0 setlinewidth
[] 0 setdash
0 0 0 setrgbcolor
newpath
4846 21374 moveto
P$1d
fill
0 setlinewidth
[] 0 setdash
0 0 0 setrgbcolor
newpath
6887 21980 moveto
P$1n
6760 21943 moveto
P$1o
fill
0 setlinewidth
[] 0 setdash
0 0 0 setrgbcolor
newpath
7681 22012 moveto
P$29
7253 21744 moveto
P$2a
fill
0 setlinewidth
[] 0 setdash
0 0 0 setrgbcolor
newpath
8021 21374 moveto
P$2d
fill
0 setlinewidth
[] 0 setdash
0 0 0 setrgbcolor
newpath
9037 21374 moveto
P$2e
fill
0.78 0.78 0.78 setrgbcolor
13000 3629 32300 39695 100 roundrect
closepath eofill
0.71 0.71 0.71 setrgbcolor
12900 3529 32350 39745 100 roundrect
closepath eofill
0.64 0.64 0.64 setrgbcolor
12800 3429 32400 39795 100 roundrect
closepath eofill
0.56 0.56 0.56 setrgbcolor
12700 3329 32450 39845 100 roundrect
closepath eofill
0.49 0.49 0.49 setrgbcolor
12600 3229 32500 39895 100 roundrect
closepath eofill
0.42 0.42 0.42 setrgbcolor
12500 3129 32550 39945 100 roundrect
closepath eofill
0.34 0.34 0.34 setrgbcolor
12400 3029 32600 39995 100 roundrect
closepath eofill
0.27 0.27 0.27 setrgbcolor
12300 2929 32650 40045 100 roundrect
closepath eofill
0.2 0.2 0.2 setrgbcolor
12200 2829 32700 40095 100 roundrect
closepath eofill
1 1 0.81 setrgbcolor
13000 3629 31900 39295 simplerect
closepath eofill
150 setlinewidth
0.66 0 0.21 setrgbcolor
13000 3629 31900 39295 simplerect
closepath stroke
1 1 0.81 setrgbcolor
1000 500 31400 39795 simplerect
closepath eofill
150 setlinewidth
0.66 0 0.21 setrgbcolor
1000 500 31400 39795 simplerect
closepath stroke
1 1 0.81 setrgbcolor
1000 500 31400 41925 simplerect
closepath eofill
150 setlinewidth
0.66 0 0.21 setrgbcolor
1000 500 31400 41925 simplerect
closepath stroke
0 setlinewidth
[] 0 setdash
0 0 0 setrgbcolor
newpath
33175 41107 moveto
P$1v
33175 40687 moveto
P$1w
33037 40574 moveto
P$1x
fill
0 setlinewidth
[] 0 setdash
0 0 0 setrgbcolor
newpath
34379 41210 moveto
P$1j
34631 41157 moveto
P$1k
fill
0 setlinewidth
[] 0 setdash
0 0 0 setrgbcolor
newpath
35382 40858 moveto
P$1l
fill
0 setlinewidth
[] 0 setdash
0 0 0 setrgbcolor
newpath
35626 40530 moveto
P$1m
fill
0 setlinewidth
[] 0 setdash
0 0 0 setrgbcolor
newpath
37087 41180 moveto
P$1n
36960 41143 moveto
P$1o
fill
0 setlinewidth
[] 0 setdash
0 0 0 setrgbcolor
newpath
37968 41132 moveto
P$1r
fill
0 setlinewidth
[] 0 setdash
0 0 0 setrgbcolor
newpath
38735 40944 moveto
P$1y
38307 41212 moveto
P$1z
fill
0 setlinewidth
[] 0 setdash
0 0 0 setrgbcolor
newpath
39740 41046 moveto
P$20
39837 40969 moveto
P$21
fill
0 setlinewidth
[] 0 setdash
0 0 0 setrgbcolor
newpath
41478 40710 moveto
P$22
41400 40574 moveto
P$23
fill
0 setlinewidth
[] 0 setdash
0 0 0 setrgbcolor
newpath
42175 40687 moveto
P$24
42037 40574 moveto
P$25
fill
0 setlinewidth
[] 0 setdash
0 0 0 setrgbcolor
newpath
42937 40574 moveto
P$26
fill
0 setlinewidth
[] 0 setdash
0 0 0 setrgbcolor
newpath
43720 40851 moveto
P$27
fill
0.78 0.78 0.78 setrgbcolor
6400 3629 35600 30095 100 roundrect
closepath eofill
0.71 0.71 0.71 setrgbcolor
6300 3529 35650 30145 100 roundrect
closepath eofill
0.64 0.64 0.64 setrgbcolor
6200 3429 35700 30195 100 roundrect
closepath eofill
0.56 0.56 0.56 setrgbcolor
6100 3329 35750 30245 100 roundrect
closepath eofill
0.49 0.49 0.49 setrgbcolor
6000 3229 35800 30295 100 roundrect
closepath eofill
0.42 0.42 0.42 setrgbcolor
5900 3129 35850 30345 100 roundrect
closepath eofill
0.34 0.34 0.34 setrgbcolor
5800 3029 35900 30395 100 roundrect
closepath eofill
0.27 0.27 0.27 setrgbcolor
5700 2929 35950 30445 100 roundrect
closepath eofill
0.2 0.2 0.2 setrgbcolor
5600 2829 36000 30495 100 roundrect
closepath eofill
1 1 0.81 setrgbcolor
6400 3629 35200 29695 simplerect
closepath eofill
150 setlinewidth
0.66 0 0.21 setrgbcolor
6400 3629 35200 29695 simplerect
closepath stroke
1 1 0.81 setrgbcolor
1000 500 34700 30195 simplerect
closepath eofill
150 setlinewidth
0.66 0 0.21 setrgbcolor
1000 500 34700 30195 simplerect
closepath stroke
1 1 0.81 setrgbcolor
1000 500 34700 32325 simplerect
closepath eofill
150 setlinewidth
0.66 0 0.21 setrgbcolor
1000 500 34700 32325 simplerect
closepath stroke
0 setlinewidth
[] 0 setdash
0 0 0 setrgbcolor
newpath
36246 30974 moveto
P$1d
fill
0 setlinewidth
[] 0 setdash
0 0 0 setrgbcolor
newpath
38287 31580 moveto
P$1n
38160 31543 moveto
P$1o
fill
0 setlinewidth
[] 0 setdash
0 0 0 setrgbcolor
newpath
39081 31612 moveto
P$29
38653 31344 moveto
P$2a
fill
0 setlinewidth
[] 0 setdash
0 0 0 setrgbcolor
newpath
39421 30974 moveto
P$2d
fill
0 setlinewidth
[] 0 setdash
0 0 0 setrgbcolor
newpath
40437 30974 moveto
P$2e
fill
0.78 0.78 0.78 setrgbcolor
9000 3629 34500 49895 100 roundrect
closepath eofill
0.71 0.71 0.71 setrgbcolor
8900 3529 34550 49945 100 roundrect
closepath eofill
0.64 0.64 0.64 setrgbcolor
8800 3429 34600 49995 100 roundrect
closepath eofill
0.56 0.56 0.56 setrgbcolor
8700 3329 34650 50045 100 roundrect
closepath eofill
0.49 0.49 0.49 setrgbcolor
8600 3229 34700 50095 100 roundrect
closepath eofill
0.42 0.42 0.42 setrgbcolor
8500 3129 34750 50145 100 roundrect
closepath eofill
0.34 0.34 0.34 setrgbcolor
8400 3029 34800 50195 100 roundrect
closepath eofill
0.27 0.27 0.27 setrgbcolor
8300 2929 34850 50245 100 roundrect
closepath eofill
0.2 0.2 0.2 setrgbcolor
8200 2829 34900 50295 100 roundrect
closepath eofill
1 1 0.81 setrgbcolor
9000 3629 34100 49495 simplerect
closepath eofill
150 setlinewidth
0.66 0 0.21 setrgbcolor
9000 3629 34100 49495 simplerect
closepath stroke
1 1 0.81 setrgbcolor
1000 500 33600 49995 simplerect
closepath eofill
150 setlinewidth
0.66 0 0.21 setrgbcolor
1000 500 33600 49995 simplerect
closepath stroke
1 1 0.81 setrgbcolor
1000 500 33600 52125 simplerect
closepath eofill
150 setlinewidth
0.66 0 0.21 setrgbcolor
1000 500 33600 52125 simplerect
closepath stroke
0 setlinewidth
[] 0 setdash
0 0 0 setrgbcolor
newpath
35675 51146 moveto
P$2c
fill
0 setlinewidth
[] 0 setdash
0 0 0 setrgbcolor
newpath
36387 51380 moveto
P$1n
36260 51343 moveto
P$1o
fill
0 setlinewidth
[] 0 setdash
0 0 0 setrgbcolor
newpath
37120 51051 moveto
P$1q
fill
0 setlinewidth
[] 0 setdash
0 0 0 setrgbcolor
newpath
37728 51116 moveto
P$1s
37728 51010 moveto
P$1t
fill
0 setlinewidth
[] 0 setdash
0 0 0 setrgbcolor
newpath
38318 51493 moveto
P$28
fill
0 setlinewidth
[] 0 setdash
0 0 0 setrgbcolor
newpath
39675 51146 moveto
P$2c
fill
0 setlinewidth
[] 0 setdash
0 0 0 setrgbcolor
newpath
40282 51058 moveto
P$1l
fill
0 setlinewidth
[] 0 setdash
0 0 0 setrgbcolor
newpath
41187 51380 moveto
P$1n
41060 51343 moveto
P$1o
fill
0 setlinewidth
[] 0 setdash
0 0 0 setrgbcolor
newpath
41920 51051 moveto
P$27
fill
100 setlinewidth
0.66 0 0.21 setrgbcolor
newpath
19900 12126 moveto
19900 14122 19900 17405 19900 19583 curveto
stroke
0.66 0 0.21 setrgbcolor
newpath
19900 20085 moveto
400 -900 rlineto
-400 400 rlineto
-400 -400 rlineto
400 900 rlineto
19900 20085 lineto
closepath eofill
100 setlinewidth
0.66 0 0.21 setrgbcolor
newpath
19900 20085 moveto
400 -900 rlineto
-400 400 rlineto
-400 -400 rlineto
400 900 rlineto
19900 20085 lineto
closepath stroke
100 setlinewidth
0.66 0 0.21 setrgbcolor
newpath
19845 23719 moveto
19796 25243 19725 27476 19672 29141 curveto
stroke
0.66 0 0.21 setrgbcolor
newpath
19655 29682 moveto
430 -885 rlineto
-413 386 rlineto
-386 -413 rlineto
368 913 rlineto
19655 29682 lineto
closepath eofill
100 setlinewidth
0.66 0 0.21 setrgbcolor
newpath
19655 29682 moveto
430 -885 rlineto
-413 386 rlineto
-386 -413 rlineto
368 913 rlineto
19655 29682 lineto
closepath stroke
100 setlinewidth
0.66 0 0.21 setrgbcolor
newpath
9282 23697 moveto
11418 25291 14613 27674 16880 29366 curveto
stroke
0.66 0 0.21 setrgbcolor
newpath
17293 29674 moveto
-481 -859 rlineto
80 559 rlineto
-559 80 rlineto
960 218 rlineto
17293 29674 lineto
closepath eofill
100 setlinewidth
0.66 0 0.21 setrgbcolor
newpath
17293 29674 moveto
-481 -859 rlineto
80 559 rlineto
-559 80 rlineto
960 218 rlineto
17293 29674 lineto
closepath stroke
100 setlinewidth
0.66 0 0.21 setrgbcolor
newpath
23005 33297 moveto
26255 34923 31148 37369 34541 39066 curveto
stroke
0.66 0 0.21 setrgbcolor
newpath
34989 39290 moveto
-627 -759 rlineto
179 536 rlineto
-536 179 rlineto
983 43 rlineto
34989 39290 lineto
closepath eofill
100 setlinewidth
0.66 0 0.21 setrgbcolor
newpath
34989 39290 moveto
-627 -759 rlineto
179 536 rlineto
-536 179 rlineto
983 43 rlineto
34989 39290 lineto
closepath stroke
100 setlinewidth
0.66 0 0.21 setrgbcolor
newpath
38435 42937 moveto
38468 44600 38518 47116 38555 48933 curveto
stroke
0.66 0 0.21 setrgbcolor
newpath
38566 49473 moveto
381 -907 rlineto
-391 407 rlineto
-407 -391 rlineto
417 891 rlineto
38566 49473 lineto
closepath eofill
100 setlinewidth
0.66 0 0.21 setrgbcolor
newpath
38566 49473 moveto
381 -907 rlineto
-391 407 rlineto
-407 -391 rlineto
417 891 rlineto
38566 49473 lineto
closepath stroke
100 setlinewidth
0.66 0 0.21 setrgbcolor
newpath
38400 33319 moveto
38400 34843 38400 37076 38400 38741 curveto
stroke
0.66 0 0.21 setrgbcolor
newpath
38400 39282 moveto
400 -900 rlineto
-400 400 rlineto
-400 -400 rlineto
400 900 rlineto
38400 39282 lineto
closepath eofill
100 setlinewidth
0.66 0 0.21 setrgbcolor
newpath
38400 39282 moveto
400 -900 rlineto
-400 400 rlineto
-400 -400 rlineto
400 900 rlineto
38400 39282 lineto
closepath stroke
grestore
showpage
%plantuml done
%%EOF
