%!PS-Adobe-3.0 EPSF-3.0
%%Creator: PlantUML v1.2019.13      
%%Title: noTitle
%%BoundingBox: 0 0 680 399
%%ColorUsage: Color
%%Origin: 0 0
%%EndComments

gsave
0 399 translate
.01 -.01 scale
/simplerect {
newpath moveto 1 index 0 rlineto
0 exch rlineto
neg 0 rlineto
} def
/roundrect {
newpath
dup 3 index add 2 index 2 index add 2 index 180 270 arc
2 index 5 index add 1 index sub 2 index 2 index add 2 index 270 0 arc
2 index 5 index add 1 index sub 2 index 5 index add 2 index sub 2 index 0 90 arc
dup 3 index add 2 index 5 index add 2 index sub 2 index 90 180 arc
pop pop pop pop pop 
} def
/rquadto {
3 index 3 index 4 2 roll rcurveto
} def
/P$2 {
0 79 rlineto
-742 0 rlineto
9 167 100 254 rquadto
90 87 251 87 rquadto
92 0 179 -23 rquadto
87 -23 173 -68 rquadto
0 153 rlineto
-85 37 -177 56 rquadto
-91 18 -186 18 rquadto
-234 0 -371 -136 rquadto
-137 -136 -137 -371 rquadto
0 -242 130 -383 rquadto
130 -141 350 -141 rquadto
200 0 314 127 rquadto
114 127 114 347 rquadto
closepath
} def
/P$2g {
0 56 rlineto
-537 0 rlineto
7 121 72 184 rquadto
64 62 180 62 rquadto
67 0 130 -16 rquadto
63 -16 125 -49 rquadto
0 110 rlineto
-62 26 -128 40 rquadto
-66 14 -133 14 rquadto
-170 0 -269 -99 rquadto
-99 -99 -99 -267 rquadto
0 -175 94 -277 rquadto
94 -102 253 -102 rquadto
143 0 227 92 rquadto
83 92 83 251 rquadto
closepath
} def
/P$i {
0 593 rlineto
-160 0 rlineto
0 -589 rlineto
0 -139 -54 -208 rquadto
-54 -69 -164 -69 rquadto
-131 0 -206 83 rquadto
-75 83 -75 227 rquadto
0 556 rlineto
-162 0 rlineto
0 -984 rlineto
162 0 rlineto
0 153 rlineto
57 -89 136 -132 rquadto
78 -43 180 -43 rquadto
170 0 257 104 rquadto
86 104 86 309 rquadto
} def
/P$1p {
-151 0 -210 34 rquadto
-59 34 -59 118 rquadto
0 67 44 106 rquadto
44 39 119 39 rquadto
104 0 167 -74 rquadto
63 -74 63 -196 rquadto
0 -28 rlineto
-125 0 rlineto
closepath
} def
/P$s {
0 -70 -40 -113 rquadto
-40 -42 -106 -42 rquadto
-70 0 -114 39 rquadto
-44 39 -55 116 rquadto
317 0 rlineto
} def
/P$1s {
0 -135 -56 -210 rquadto
-56 -75 -157 -75 rquadto
-101 0 -157 75 rquadto
-56 75 -56 210 rquadto
0 135 56 211 rquadto
56 75 157 75 rquadto
101 0 157 -75 rquadto
56 -75 56 -211 rquadto
closepath
} def
/P$29 {
0 201 rlineto
240 0 rlineto
0 90 rlineto
-240 0 rlineto
0 385 rlineto
0 87 24 111 rquadto
24 24 97 24 rquadto
118 0 rlineto
0 98 rlineto
-118 0 rlineto
-135 0 -187 -50 rquadto
-51 -50 -51 -183 rquadto
0 -385 rlineto
-85 0 rlineto
0 -90 rlineto
85 0 rlineto
0 -201 rlineto
117 0 rlineto
} def
/P$y {
0 160 rlineto
-135 0 rlineto
-51 0 -71 18 rquadto
-20 18 -20 65 rquadto
0 53 rlineto
207 0 rlineto
0 175 rlineto
-207 0 rlineto
0 590 rlineto
-245 0 rlineto
0 -590 rlineto
-121 0 rlineto
0 -175 rlineto
121 0 rlineto
0 -53 rlineto
0 -125 69 -185 rquadto
69 -60 216 -60 rquadto
187 0 rlineto
} def
/P$g {
0 -532 rlineto
162 0 rlineto
0 1367 rlineto
-162 0 rlineto
0 -148 rlineto
-50 89 -128 131 rquadto
-78 42 -187 42 rquadto
-178 0 -289 -142 rquadto
-111 -142 -111 -373 rquadto
0 -232 111 -375 rquadto
111 -142 289 -142 rquadto
109 0 187 42 rquadto
78 42 128 131 rquadto
closepath
} def
/P$2e {
0 -129 -53 -202 rquadto
-53 -72 -145 -72 rquadto
-92 0 -145 72 rquadto
-53 72 -53 202 rquadto
0 128 53 201 rquadto
53 73 145 73 rquadto
92 0 145 -73 rquadto
53 -73 53 -201 rquadto
closepath
} def
/P$2f {
35 -64 92 -94 rquadto
56 -30 134 -30 rquadto
129 0 210 103 rquadto
81 103 81 270 rquadto
0 167 -81 270 rquadto
-81 103 -210 103 rquadto
-78 0 -134 -31 rquadto
-56 -31 -92 -93 rquadto
0 106 rlineto
-117 0 rlineto
0 -987 rlineto
117 0 rlineto
0 384 rlineto
} def
/P$v {
245 0 rlineto
0 200 rlineto
-245 0 rlineto
0 -200 rlineto
} def
/P$x {
-31 -14 -63 -21 rquadto
-32 -7 -64 -7 rquadto
-93 0 -144 60 rquadto
-50 60 -50 172 rquadto
0 353 rlineto
-245 0 rlineto
0 -765 rlineto
245 0 rlineto
0 125 rlineto
46 -75 107 -109 rquadto
60 -34 146 -34 rquadto
12 0 26 0 rquadto
14 0 42 5 rquadto
0 220 rlineto
} def
/P$1x {
132 0 rlineto
239 642 rlineto
239 -642 rlineto
134 0 rlineto
-287 765 rlineto
-171 0 rlineto
-285 -765 rlineto
} def
/P$1v {
0 -414 rlineto
125 0 rlineto
0 1064 rlineto
-125 0 rlineto
0 -115 rlineto
-39 68 -100 102 rquadto
-60 33 -145 33 rquadto
-139 0 -226 -110 rquadto
-87 -110 -87 -292 rquadto
0 -179 87 -290 rquadto
87 -110 226 -110 rquadto
84 0 145 33 rquadto
60 33 100 100 rquadto
closepath
} def
/P$10 {
0 437 rlineto
-246 0 rlineto
0 -114 rlineto
-48 70 -110 102 rquadto
-61 32 -149 32 rquadto
-120 0 -193 -69 rquadto
-73 -69 -73 -180 rquadto
0 -134 92 -197 rquadto
92 -63 290 -63 rquadto
143 0 rlineto
0 -18 rlineto
0 -57 -45 -85 rquadto
-45 -27 -142 -27 rquadto
-79 0 -146 15 rquadto
-67 15 -126 48 rquadto
0 -187 rlineto
79 -18 158 -28 rquadto
78 -10 158 -10 rquadto
207 0 299 82 rquadto
91 82 91 264 rquadto
} def
/P$13 {
0 120 rlineto
-53 -28 -110 -41 rquadto
-57 -13 -118 -13 rquadto
-93 0 -140 28 rquadto
-46 28 -46 85 rquadto
0 43 33 68 rquadto
33 25 135 46 rquadto
42 10 rlineto
134 28 190 80 rquadto
56 52 56 146 rquadto
0 106 -84 168 rquadto
-84 62 -231 62 rquadto
-62 0 -128 -12 rquadto
-66 -12 -139 -35 rquadto
0 -129 rlineto
68 35 136 53 rquadto
67 17 133 17 rquadto
89 0 136 -30 rquadto
47 -30 47 -85 rquadto
0 -51 -34 -78 rquadto
-34 -27 -151 -52 rquadto
-43 -10 rlineto
-115 -23 -167 -75 rquadto
-52 -51 -52 -139 rquadto
0 -109 76 -167 rquadto
76 -58 217 -58 rquadto
70 0 132 10 rquadto
61 10 113 30 rquadto
} def
/P$9 {
0 134 rlineto
-154 0 rlineto
-87 0 -121 35 rquadto
-33 35 -33 125 rquadto
0 87 rlineto
265 0 rlineto
0 125 rlineto
-265 0 rlineto
0 859 rlineto
-164 0 rlineto
0 -859 rlineto
-154 0 rlineto
0 -125 rlineto
154 0 rlineto
0 -68 rlineto
0 -164 76 -239 rquadto
76 -75 243 -75 rquadto
153 0 rlineto
} def
/P$1l {
126 0 rlineto
0 765 rlineto
-126 0 rlineto
0 -765 rlineto
closepath
} def
/P$u {
245 0 rlineto
0 765 rlineto
-245 0 rlineto
0 -765 rlineto
closepath
} def
/P$z {
-76 0 -115 26 rquadto
-39 26 -39 76 rquadto
0 46 31 73 rquadto
31 26 87 26 rquadto
68 0 115 -50 rquadto
46 -50 46 -125 rquadto
0 -28 rlineto
-126 0 rlineto
closepath
} def
/P$19 {
0 -464 rlineto
126 0 rlineto
0 459 rlineto
0 107 42 162 rquadto
42 54 126 54 rquadto
101 0 160 -64 rquadto
59 -64 59 -177 rquadto
0 -434 rlineto
126 0 rlineto
0 765 rlineto
-126 0 rlineto
0 -117 rlineto
-45 68 -106 103 rquadto
-60 34 -140 34 rquadto
-131 0 -200 -82 rquadto
-68 -82 -68 -239 rquadto
} def
/P$5 {
-196 0 -271 45 rquadto
-75 45 -75 153 rquadto
0 85 56 136 rquadto
56 50 154 50 rquadto
134 0 215 -95 rquadto
81 -95 81 -254 rquadto
0 -35 rlineto
-160 0 rlineto
closepath
} def
/P$2n {
101 0 rlineto
95 150 142 292 rquadto
46 142 46 285 rquadto
0 142 -46 285 rquadto
-46 143 -142 293 rquadto
-101 0 rlineto
84 -145 125 -289 rquadto
41 -143 41 -290 rquadto
0 -146 -41 -289 rquadto
-41 -142 -125 -288 rquadto
closepath
} def
/P$0 {
178 0 rlineto
0 796 rlineto
0 210 76 303 rquadto
76 92 248 92 rquadto
170 0 246 -92 rquadto
76 -92 76 -303 rquadto
0 -796 rlineto
178 0 rlineto
0 818 rlineto
0 257 -126 388 rquadto
-126 130 -375 130 rquadto
-248 0 -375 -130 rquadto
-127 -130 -127 -388 rquadto
0 -818 rlineto
} def
/P$n {
0 217 rlineto
-84 -37 -164 -57 rquadto
-79 -19 -151 -19 rquadto
-93 0 -139 25 rquadto
-45 25 -45 80 rquadto
0 42 30 64 rquadto
30 22 110 38 rquadto
112 23 rlineto
170 34 242 103 rquadto
71 69 71 197 rquadto
0 168 -100 251 rquadto
-100 82 -306 82 rquadto
-96 0 -194 -18 rquadto
-97 -18 -196 -54 rquadto
0 -221 rlineto
98 51 189 78 rquadto
90 26 176 26 rquadto
85 0 131 -28 rquadto
45 -28 45 -82 rquadto
0 -48 -30 -74 rquadto
-30 -25 -124 -46 rquadto
-101 -23 rlineto
-153 -32 -224 -104 rquadto
-71 -71 -71 -192 rquadto
0 -153 98 -235 rquadto
98 -82 282 -82 rquadto
84 0 173 12 rquadto
89 12 184 37 rquadto
} def
/P$1m {
126 0 rlineto
0 159 rlineto
-126 0 rlineto
0 -159 rlineto
} def
/P$f {
162 0 rlineto
201 768 rlineto
201 -768 rlineto
190 0 rlineto
203 768 rlineto
200 -768 rlineto
162 0 rlineto
-257 984 rlineto
-190 0 rlineto
-212 -806 rlineto
-212 806 rlineto
-190 0 rlineto
-257 -984 rlineto
} def
/P$1b {
0 -137 -57 -216 rquadto
-57 -78 -157 -78 rquadto
-100 0 -157 78 rquadto
-57 78 -57 216 rquadto
0 139 57 217 rquadto
57 78 157 78 rquadto
100 0 157 -78 rquadto
57 -78 57 -217 rquadto
closepath
} def
/P$1n {
0 217 rlineto
259 0 rlineto
0 98 rlineto
-259 0 rlineto
0 415 rlineto
0 92 25 119 rquadto
25 27 103 27 rquadto
129 0 rlineto
0 104 rlineto
-129 0 rlineto
-145 0 -200 -54 rquadto
-55 -54 -55 -196 rquadto
0 -415 rlineto
-92 0 rlineto
0 -98 rlineto
92 0 rlineto
0 -217 rlineto
126 0 rlineto
} def
/P$1z {
-20 -12 -45 -17 rquadto
-25 -5 -54 -5 rquadto
-107 0 -164 69 rquadto
-57 69 -57 199 rquadto
0 403 rlineto
-126 0 rlineto
0 -765 rlineto
126 0 rlineto
0 118 rlineto
40 -70 103 -103 rquadto
63 -33 153 -33 rquadto
14 0 29 1 rquadto
15 1 34 6 rquadto
0 128 rlineto
closepath
} def
/P$7 {
-131 0 -206 100 rquadto
-75 100 -75 278 rquadto
0 176 75 278 rquadto
75 101 206 101 rquadto
128 0 203 -102 rquadto
75 -102 75 -277 rquadto
0 -175 -75 -277 rquadto
-75 -102 -203 -102 rquadto
closepath
} def
/P$26 {
0 128 53 201 rquadto
53 73 145 73 rquadto
93 0 146 -73 rquadto
53 -73 53 -201 rquadto
0 -129 -53 -202 rquadto
-53 -72 -146 -72 rquadto
-92 0 -145 72 rquadto
-53 72 -53 202 rquadto
} def
/P$2i {
0 109 rlineto
-50 -26 -100 -40 rquadto
-50 -14 -100 -14 rquadto
-114 0 -176 72 rquadto
-62 72 -62 202 rquadto
0 129 62 201 rquadto
62 71 176 71 rquadto
50 0 100 -13 rquadto
50 -13 100 -41 rquadto
0 109 rlineto
-48 21 -100 33 rquadto
-52 11 -111 11 rquadto
-160 0 -255 -100 rquadto
-94 -100 -94 -272 rquadto
0 -173 95 -273 rquadto
95 -100 262 -100 rquadto
53 0 104 10 rquadto
51 10 100 32 rquadto
} def
/P$1q {
0 437 rlineto
-126 0 rlineto
0 -115 rlineto
-42 68 -107 102 rquadto
-64 33 -157 33 rquadto
-117 0 -186 -66 rquadto
-69 -66 -69 -177 rquadto
0 -128 86 -193 rquadto
86 -65 257 -65 rquadto
176 0 rlineto
0 -12 rlineto
0 -87 -57 -135 rquadto
-57 -47 -160 -47 rquadto
-65 0 -128 16 rquadto
-62 16 -118 47 rquadto
0 -117 rlineto
68 -26 133 -39 rquadto
64 -13 125 -13 rquadto
167 0 249 85 rquadto
82 85 82 260 rquadto
} def
/P$p {
0 185 rlineto
-78 -32 -151 -49 rquadto
-73 -16 -137 -16 rquadto
-70 0 -103 17 rquadto
-33 17 -33 53 rquadto
0 29 25 45 rquadto
25 15 92 23 rquadto
42 4 rlineto
189 25 253 79 rquadto
64 54 64 171 rquadto
0 121 -90 183 rquadto
-90 61 -268 61 rquadto
-76 0 -157 -12 rquadto
-80 -12 -166 -35 rquadto
0 -185 rlineto
73 35 150 53 rquadto
76 17 156 17 rquadto
71 0 107 -20 rquadto
35 -20 35 -59 rquadto
0 -32 -25 -48 rquadto
-25 -15 -98 -25 rquadto
-43 -6 rlineto
-164 -20 -229 -75 rquadto
-65 -55 -65 -167 rquadto
0 -121 83 -180 rquadto
83 -58 255 -58 rquadto
68 0 142 10 rquadto
74 10 161 32 rquadto
} def
/P$e {
-28 -15 -60 -23 rquadto
-32 -7 -71 -7 rquadto
-135 0 -209 89 rquadto
-73 89 -73 256 rquadto
0 518 rlineto
-162 0 rlineto
0 -984 rlineto
162 0 rlineto
0 153 rlineto
50 -90 132 -133 rquadto
82 -42 199 -42 rquadto
15 0 35 2 rquadto
20 2 45 5 rquadto
1 167 rlineto
} def
/P$1g {
0 104 rlineto
-120 0 rlineto
-68 0 -94 27 rquadto
-25 27 -25 99 rquadto
0 67 rlineto
206 0 rlineto
0 98 rlineto
-206 0 rlineto
0 667 rlineto
-126 0 rlineto
0 -667 rlineto
-120 0 rlineto
0 -98 rlineto
120 0 rlineto
0 -53 rlineto
0 -128 59 -186 rquadto
59 -58 187 -58 rquadto
120 0 rlineto
} def
/P$21 {
0 429 rlineto
-117 0 rlineto
0 -425 rlineto
0 -101 -39 -151 rquadto
-39 -50 -118 -50 rquadto
-93 0 -148 60 rquadto
-54 60 -54 164 rquadto
0 401 rlineto
-117 0 rlineto
0 -987 rlineto
117 0 rlineto
0 387 rlineto
42 -64 98 -96 rquadto
56 -32 131 -32 rquadto
121 0 185 75 rquadto
63 75 63 222 rquadto
} def
/P$2l {
-84 145 -125 288 rquadto
-41 142 -41 289 rquadto
0 146 41 290 rquadto
41 143 125 289 rquadto
-101 0 rlineto
-95 -150 -142 -293 rquadto
-46 -143 -46 -285 rquadto
0 -142 46 -285 rquadto
46 -142 142 -292 rquadto
101 0 rlineto
} def
/P$2j {
-1 -95 -53 -153 rquadto
-52 -57 -138 -57 rquadto
-98 0 -157 55 rquadto
-58 55 -67 155 rquadto
417 0 rlineto
} def
/P$2d {
117 0 rlineto
0 987 rlineto
-117 0 rlineto
0 -987 rlineto
} def
/P$l {
0 279 rlineto
332 0 rlineto
0 125 rlineto
-332 0 rlineto
0 534 rlineto
0 120 32 154 rquadto
32 34 134 34 rquadto
165 0 rlineto
0 135 rlineto
-165 0 rlineto
-187 0 -258 -69 rquadto
-71 -69 -71 -255 rquadto
0 -534 rlineto
-118 0 rlineto
0 -125 rlineto
118 0 rlineto
0 -279 rlineto
162 0 rlineto
} def
/P$h {
0 178 73 279 rquadto
73 101 203 101 rquadto
128 0 201 -101 rquadto
73 -101 73 -279 rquadto
0 -179 -73 -281 rquadto
-73 -101 -201 -101 rquadto
-129 0 -203 101 rquadto
-73 101 -73 281 rquadto
} def
/P$17 {
125 0 rlineto
157 596 rlineto
156 -596 rlineto
148 0 rlineto
157 596 rlineto
156 -596 rlineto
125 0 rlineto
-200 765 rlineto
-148 0 rlineto
-164 -628 rlineto
-165 628 rlineto
-148 0 rlineto
-200 -765 rlineto
} def
/P$2c {
0 -429 rlineto
115 0 rlineto
0 426 rlineto
0 100 39 150 rquadto
39 50 117 50 rquadto
95 0 150 -60 rquadto
54 -60 54 -164 rquadto
0 -403 rlineto
117 0 rlineto
0 710 rlineto
-117 0 rlineto
0 -109 rlineto
-42 65 -98 96 rquadto
-56 31 -131 31 rquadto
-121 0 -185 -76 rquadto
-63 -76 -63 -223 rquadto
} def
/P$14 {
0 462 rlineto
-126 0 rlineto
0 -457 rlineto
0 -109 -42 -163 rquadto
-42 -53 -126 -53 rquadto
-101 0 -160 64 rquadto
-59 64 -59 177 rquadto
0 432 rlineto
-126 0 rlineto
0 -1064 rlineto
126 0 rlineto
0 417 rlineto
45 -68 107 -103 rquadto
61 -34 141 -34 rquadto
131 0 199 82 rquadto
67 82 67 239 rquadto
} def
/P$1r {
0 120 rlineto
-53 -28 -110 -41 rquadto
-57 -13 -118 -13 rquadto
-93 0 -140 28 rquadto
-46 28 -46 85 rquadto
0 43 33 68 rquadto
33 25 135 46 rquadto
42 10 rlineto
134 28 190 80 rquadto
56 52 56 146 rquadto
0 106 -84 168 rquadto
-84 62 -231 62 rquadto
-62 0 -128 -12 rquadto
-66 -12 -139 -35 rquadto
0 -129 rlineto
68 35 136 53 rquadto
67 17 133 17 rquadto
89 0 136 -30 rquadto
47 -30 47 -85 rquadto
0 -51 -34 -78 rquadto
-34 -27 -151 -52 rquadto
-43 -10 rlineto
-115 -23 -167 -75 rquadto
-52 -51 -52 -139 rquadto
0 -109 76 -167 rquadto
76 -58 217 -58 rquadto
70 0 132 10 rquadto
61 10 113 30 rquadto
closepath
} def
/P$b {
160 0 rlineto
0 984 rlineto
-160 0 rlineto
0 -984 rlineto
closepath
} def
/P$1y {
0 117 rlineto
-53 -29 -107 -44 rquadto
-53 -14 -108 -14 rquadto
-121 0 -189 78 rquadto
-67 78 -67 217 rquadto
0 140 67 217 rquadto
67 77 189 77 rquadto
54 0 108 -14 rquadto
53 -14 107 -43 rquadto
0 115 rlineto
-53 25 -109 37 rquadto
-56 12 -118 12 rquadto
-173 0 -275 -108 rquadto
-102 -108 -102 -294 rquadto
0 -185 103 -293 rquadto
103 -107 282 -107 rquadto
57 0 113 11 rquadto
55 11 107 36 rquadto
} def
/P$1 {
0 151 rlineto
-68 -34 -142 -52 rquadto
-73 -17 -153 -17 rquadto
-120 0 -180 37 rquadto
-60 37 -60 110 rquadto
0 56 42 88 rquadto
42 32 172 61 rquadto
56 10 rlineto
171 37 244 104 rquadto
72 67 72 187 rquadto
0 137 -108 217 rquadto
-108 79 -297 79 rquadto
-79 0 -165 -14 rquadto
-85 -14 -181 -46 rquadto
0 -167 rlineto
90 46 177 70 rquadto
86 23 172 23 rquadto
114 0 175 -39 rquadto
61 -39 61 -110 rquadto
0 -65 -44 -100 rquadto
-44 -35 -194 -67 rquadto
-56 -12 rlineto
-151 -32 -217 -97 rquadto
-66 -64 -66 -180 rquadto
0 -137 98 -213 rquadto
98 -75 279 -75 rquadto
89 0 167 13 rquadto
78 13 146 39 rquadto
} def
/P$d {
754 0 rlineto
0 150 rlineto
-576 0 rlineto
0 385 rlineto
520 0 rlineto
0 150 rlineto
-520 0 rlineto
0 626 rlineto
-178 0 rlineto
0 -1312 rlineto
} def
/P$1j {
126 0 rlineto
0 1064 rlineto
-126 0 rlineto
0 -1064 rlineto
} def
/P$27 {
-140 0 -195 32 rquadto
-54 32 -54 110 rquadto
0 60 40 97 rquadto
40 36 110 36 rquadto
96 0 156 -68 rquadto
59 -68 59 -182 rquadto
0 -26 rlineto
-117 0 rlineto
closepath
} def
/P$k {
0 151 rlineto
-68 -34 -142 -52 rquadto
-73 -17 -153 -17 rquadto
-120 0 -180 37 rquadto
-60 37 -60 110 rquadto
0 56 42 88 rquadto
42 32 172 61 rquadto
56 10 rlineto
171 37 244 104 rquadto
72 67 72 187 rquadto
0 137 -108 217 rquadto
-108 79 -297 79 rquadto
-79 0 -165 -14 rquadto
-85 -14 -181 -46 rquadto
0 -167 rlineto
90 46 177 70 rquadto
86 23 172 23 rquadto
114 0 175 -39 rquadto
61 -39 61 -110 rquadto
0 -65 -44 -100 rquadto
-44 -35 -194 -67 rquadto
-56 -12 rlineto
-151 -32 -217 -97 rquadto
-66 -64 -66 -180 rquadto
0 -137 98 -213 rquadto
98 -75 279 -75 rquadto
89 0 167 13 rquadto
78 13 146 39 rquadto
closepath
} def
/P$1h {
0 406 rlineto
-126 0 rlineto
0 -1056 rlineto
126 0 rlineto
0 115 rlineto
40 -67 100 -100 rquadto
60 -33 144 -33 rquadto
139 0 226 110 rquadto
87 110 87 290 rquadto
0 181 -87 292 rquadto
-87 110 -226 110 rquadto
-84 0 -144 -33 rquadto
-60 -33 -100 -102 rquadto
closepath
} def
/P$1u {
0 104 rlineto
-120 0 rlineto
-68 0 -94 27 rquadto
-25 27 -25 99 rquadto
0 67 rlineto
206 0 rlineto
0 98 rlineto
-206 0 rlineto
0 667 rlineto
-126 0 rlineto
0 -667 rlineto
-120 0 rlineto
0 -98 rlineto
120 0 rlineto
0 -53 rlineto
0 -128 59 -186 rquadto
59 -58 187 -58 rquadto
120 0 rlineto
closepath
} def
/P$2a {
-93 0 -148 73 rquadto
-54 73 -54 201 rquadto
0 128 53 200 rquadto
53 72 149 72 rquadto
92 0 146 -73 rquadto
54 -73 54 -200 rquadto
0 -126 -54 -200 rquadto
-54 -74 -146 -74 rquadto
closepath
} def
/P$1w {
0 139 57 217 rquadto
57 78 157 78 rquadto
98 0 156 -78 rquadto
57 -78 57 -217 rquadto
0 -137 -57 -216 rquadto
-57 -78 -156 -78 rquadto
-100 0 -157 78 rquadto
-57 78 -57 216 rquadto
} def
/P$r {
0 68 rlineto
-571 0 rlineto
9 85 62 129 rquadto
53 43 148 43 rquadto
78 0 159 -23 rquadto
81 -23 165 -70 rquadto
0 189 rlineto
-85 32 -172 50 rquadto
-86 17 -174 17 rquadto
-207 0 -322 -106 rquadto
-114 -106 -114 -296 rquadto
0 -185 112 -293 rquadto
112 -107 310 -107 rquadto
181 0 289 108 rquadto
107 108 107 291 rquadto
closepath
} def
/P$q {
0 217 rlineto
253 0 rlineto
0 175 rlineto
-253 0 rlineto
0 325 rlineto
0 53 21 71 rquadto
21 18 85 18 rquadto
125 0 rlineto
0 175 rlineto
-209 0 rlineto
-145 0 -205 -60 rquadto
-60 -60 -60 -205 rquadto
0 -325 rlineto
-121 0 rlineto
0 -175 rlineto
121 0 rlineto
0 -217 rlineto
243 0 rlineto
} def
/P$1k {
-1 -103 -57 -164 rquadto
-56 -61 -148 -61 rquadto
-106 0 -169 60 rquadto
-63 60 -72 167 rquadto
448 -1 rlineto
closepath
} def
/P$18 {
0 462 rlineto
-126 0 rlineto
0 -457 rlineto
0 -109 -42 -163 rquadto
-42 -53 -126 -53 rquadto
-101 0 -160 64 rquadto
-59 64 -59 177 rquadto
0 432 rlineto
-126 0 rlineto
0 -765 rlineto
126 0 rlineto
0 118 rlineto
45 -68 107 -103 rquadto
61 -34 141 -34 rquadto
131 0 199 82 rquadto
67 82 67 239 rquadto
} def
/P$2o {
0 134 rlineto
-79 -37 -149 -55 rquadto
-69 -17 -135 -17 rquadto
-112 0 -173 43 rquadto
-60 43 -60 123 rquadto
0 68 40 103 rquadto
40 34 154 54 rquadto
82 17 rlineto
154 29 228 103 rquadto
73 74 73 199 rquadto
0 148 -99 225 rquadto
-99 76 -291 76 rquadto
-73 0 -154 -16 rquadto
-81 -16 -168 -49 rquadto
0 -142 rlineto
84 46 164 71 rquadto
80 24 158 24 rquadto
117 0 182 -46 rquadto
64 -46 64 -132 rquadto
0 -75 -46 -117 rquadto
-46 -42 -152 -64 rquadto
-84 -15 rlineto
-154 -31 -223 -96 rquadto
-68 -65 -68 -182 rquadto
0 -134 95 -212 rquadto
95 -78 262 -78 rquadto
71 0 146 13 rquadto
75 13 153 38 rquadto
} def
/P$1f {
-20 -12 -45 -17 rquadto
-25 -5 -54 -5 rquadto
-107 0 -164 69 rquadto
-57 69 -57 199 rquadto
0 403 rlineto
-126 0 rlineto
0 -765 rlineto
126 0 rlineto
0 118 rlineto
40 -70 103 -103 rquadto
63 -33 153 -33 rquadto
14 0 29 1 rquadto
15 1 34 6 rquadto
0 128 rlineto
} def
/P$c {
160 0 rlineto
0 204 rlineto
-160 0 rlineto
0 -204 rlineto
} def
/P$t {
46 -70 110 -107 rquadto
64 -37 140 -37 rquadto
131 0 200 81 rquadto
69 81 69 237 rquadto
0 465 rlineto
-246 0 rlineto
0 -400 rlineto
1 -7 1 -17 rquadto
0 -9 0 -28 rquadto
0 -81 -23 -117 rquadto
-23 -36 -78 -36 rquadto
-68 0 -107 57 rquadto
-38 57 -39 165 rquadto
0 376 rlineto
-245 0 rlineto
0 -400 rlineto
0 -126 -21 -163 rquadto
-21 -36 -78 -36 rquadto
-70 0 -108 57 rquadto
-38 57 -38 165 rquadto
0 376 rlineto
-246 0 rlineto
0 -765 rlineto
246 0 rlineto
0 112 rlineto
45 -65 103 -98 rquadto
58 -32 128 -32 rquadto
78 0 139 38 rquadto
60 38 92 107 rquadto
} def
/P$1o {
132 0 rlineto
239 642 rlineto
239 -642 rlineto
134 0 rlineto
-287 765 rlineto
-171 0 rlineto
-285 -765 rlineto
closepath
} def
/P$20 {
801 0 rlineto
0 109 rlineto
-337 0 rlineto
0 839 rlineto
-128 0 rlineto
0 -839 rlineto
-335 0 rlineto
0 -109 rlineto
} def
/P$1a {
46 -84 112 -125 rquadto
65 -40 154 -40 rquadto
120 0 185 83 rquadto
64 83 64 238 rquadto
0 462 rlineto
-126 0 rlineto
0 -457 rlineto
0 -110 -39 -164 rquadto
-39 -53 -118 -53 rquadto
-98 0 -154 64 rquadto
-56 64 -56 177 rquadto
0 432 rlineto
-126 0 rlineto
0 -457 rlineto
0 -110 -39 -164 rquadto
-39 -53 -120 -53 rquadto
-96 0 -153 65 rquadto
-57 65 -57 176 rquadto
0 432 rlineto
-126 0 rlineto
0 -765 rlineto
126 0 rlineto
0 118 rlineto
43 -70 103 -103 rquadto
60 -33 142 -33 rquadto
82 0 141 42 rquadto
58 42 86 123 rquadto
} def
/P$15 {
-100 0 -159 78 rquadto
-59 78 -59 216 rquadto
0 137 58 216 rquadto
58 78 160 78 rquadto
101 0 160 -78 rquadto
58 -78 58 -216 rquadto
0 -135 -58 -215 rquadto
-58 -79 -160 -79 rquadto
closepath
} def
/P$16 {
164 0 257 107 rquadto
93 107 93 294 rquadto
0 189 -93 296 rquadto
-93 107 -257 107 rquadto
-164 0 -257 -107 rquadto
-93 -107 -93 -296 rquadto
0 -187 93 -294 rquadto
93 -107 257 -107 rquadto
} def
/P$1d {
0 60 rlineto
-579 0 rlineto
9 129 78 197 rquadto
69 67 194 67 rquadto
73 0 141 -17 rquadto
67 -17 135 -53 rquadto
0 118 rlineto
-68 28 -139 43 rquadto
-71 15 -142 15 rquadto
-184 0 -291 -107 rquadto
-107 -107 -107 -288 rquadto
0 -189 101 -299 rquadto
101 -110 275 -110 rquadto
154 0 244 99 rquadto
89 99 89 271 rquadto
closepath
} def
/P$w {
0 465 rlineto
-246 0 rlineto
0 -76 rlineto
0 -279 rlineto
0 -100 -3 -137 rquadto
-3 -37 -14 -54 rquadto
-14 -25 -39 -38 rquadto
-25 -13 -56 -13 rquadto
-76 0 -120 59 rquadto
-43 59 -43 164 rquadto
0 376 rlineto
-245 0 rlineto
0 -765 rlineto
245 0 rlineto
0 112 rlineto
54 -67 117 -99 rquadto
62 -32 137 -32 rquadto
132 0 201 81 rquadto
68 81 68 237 rquadto
} def
/P$2m {
0 429 rlineto
-117 0 rlineto
0 -425 rlineto
0 -101 -39 -151 rquadto
-39 -50 -118 -50 rquadto
-93 0 -148 60 rquadto
-54 60 -54 164 rquadto
0 401 rlineto
-117 0 rlineto
0 -710 rlineto
117 0 rlineto
0 110 rlineto
42 -64 98 -96 rquadto
56 -32 131 -32 rquadto
121 0 185 75 rquadto
63 75 63 222 rquadto
} def
/P$2b {
151 0 239 99 rquadto
87 99 87 274 rquadto
0 175 -87 274 rquadto
-87 99 -239 99 rquadto
-153 0 -239 -99 rquadto
-86 -99 -86 -274 rquadto
0 -175 86 -274 rquadto
86 -99 239 -99 rquadto
} def
/P$28 {
0 406 rlineto
-115 0 rlineto
0 -107 rlineto
-40 64 -100 95 rquadto
-59 31 -146 31 rquadto
-109 0 -173 -61 rquadto
-64 -61 -64 -163 rquadto
0 -120 80 -181 rquadto
80 -60 239 -60 rquadto
164 0 rlineto
0 -12 rlineto
0 -79 -53 -124 rquadto
-53 -44 -150 -44 rquadto
-60 0 -118 14 rquadto
-57 14 -110 44 rquadto
0 -107 rlineto
64 -25 125 -37 rquadto
60 -12 117 -12 rquadto
154 0 230 79 rquadto
75 79 75 242 rquadto
} def
/P$4 {
0 151 rlineto
-68 -37 -137 -56 rquadto
-68 -18 -139 -18 rquadto
-157 0 -244 99 rquadto
-86 99 -86 280 rquadto
0 179 86 279 rquadto
86 100 244 100 rquadto
70 0 139 -19 rquadto
68 -19 137 -57 rquadto
0 150 rlineto
-67 31 -139 46 rquadto
-72 15 -153 15 rquadto
-223 0 -353 -139 rquadto
-130 -139 -130 -375 rquadto
0 -242 132 -379 rquadto
132 -137 361 -137 rquadto
75 0 146 14 rquadto
71 14 138 46 rquadto
} def
/P$m {
60 -109 145 -160 rquadto
84 -51 198 -51 rquadto
153 0 236 107 rquadto
83 107 83 306 rquadto
0 593 rlineto
-162 0 rlineto
0 -589 rlineto
0 -140 -50 -209 rquadto
-50 -68 -153 -68 rquadto
-125 0 -197 83 rquadto
-72 83 -72 227 rquadto
0 556 rlineto
-164 0 rlineto
0 -589 rlineto
0 -142 -50 -210 rquadto
-50 -67 -154 -67 rquadto
-123 0 -196 83 rquadto
-72 83 -72 227 rquadto
0 556 rlineto
-162 0 rlineto
0 -984 rlineto
162 0 rlineto
0 153 rlineto
54 -90 132 -133 rquadto
77 -42 183 -42 rquadto
107 0 182 54 rquadto
75 54 110 157 rquadto
closepath
} def
/P$o {
245 0 rlineto
204 518 rlineto
175 -518 rlineto
245 0 rlineto
-321 837 rlineto
-48 128 -113 178 rquadto
-64 50 -171 50 rquadto
-140 0 rlineto
0 -159 rlineto
76 0 rlineto
62 0 90 -20 rquadto
28 -20 43 -71 rquadto
6 -20 rlineto
-340 -795 rlineto
} def
/P$j {
-68 175 -133 228 rquadto
-64 53 -174 53 rquadto
-129 0 rlineto
0 -135 rlineto
95 0 rlineto
67 0 103 -31 rquadto
36 -31 82 -150 rquadto
28 -73 rlineto
-398 -968 rlineto
171 0 rlineto
307 770 rlineto
307 -770 rlineto
170 0 rlineto
-431 1076 rlineto
} def
/P$11 {
0 200 rlineto
-50 -34 -100 -50 rquadto
-50 -16 -104 -16 rquadto
-101 0 -158 60 rquadto
-57 60 -57 166 rquadto
0 107 57 167 rquadto
57 60 158 60 rquadto
57 0 109 -17 rquadto
51 -17 95 -51 rquadto
0 201 rlineto
-57 20 -116 31 rquadto
-58 10 -117 10 rquadto
-207 0 -324 -106 rquadto
-116 -106 -116 -296 rquadto
0 -189 116 -295 rquadto
116 -106 324 -106 rquadto
59 0 117 10 rquadto
58 10 116 31 rquadto
} def
/P$25 {
0 -384 rlineto
117 0 rlineto
0 987 rlineto
-117 0 rlineto
0 -106 rlineto
-37 62 -93 93 rquadto
-56 31 -134 31 rquadto
-128 0 -209 -103 rquadto
-81 -103 -81 -270 rquadto
0 -167 81 -270 rquadto
81 -103 209 -103 rquadto
78 0 134 30 rquadto
56 30 93 94 rquadto
closepath
} def
/P$a {
179 0 rlineto
276 1109 rlineto
275 -1109 rlineto
198 0 rlineto
276 1109 rlineto
275 -1109 rlineto
179 0 rlineto
-329 1312 rlineto
-221 0 rlineto
-278 -1139 rlineto
-278 1139 rlineto
-223 0 rlineto
-329 -1312 rlineto
} def
/P$24 {
0 110 rlineto
-48 -25 -101 -37 rquadto
-53 -12 -110 -12 rquadto
-87 0 -130 26 rquadto
-42 26 -42 79 rquadto
0 40 30 63 rquadto
30 22 125 44 rquadto
39 9 rlineto
125 26 177 75 rquadto
52 48 52 134 rquadto
0 100 -78 157 rquadto
-78 57 -215 57 rquadto
-57 0 -119 -10 rquadto
-61 -10 -130 -34 rquadto
0 -120 rlineto
65 34 128 50 rquadto
62 16 123 16 rquadto
82 0 127 -28 rquadto
44 -28 44 -79 rquadto
0 -46 -32 -72 rquadto
-32 -25 -139 -49 rquadto
-40 -9 rlineto
-109 -23 -157 -70 rquadto
-48 -46 -48 -129 rquadto
0 -100 71 -154 rquadto
71 -54 202 -54 rquadto
64 0 121 9 rquadto
57 9 104 28 rquadto
} def
/P$6 {
0 560 rlineto
-160 0 rlineto
0 -150 rlineto
-56 90 -138 132 rquadto
-82 42 -202 42 rquadto
-151 0 -240 -84 rquadto
-89 -84 -89 -226 rquadto
0 -167 111 -251 rquadto
111 -84 332 -84 rquadto
226 0 rlineto
0 -15 rlineto
0 -110 -73 -171 rquadto
-73 -60 -206 -60 rquadto
-84 0 -164 19 rquadto
-79 19 -154 60 rquadto
0 -148 rlineto
89 -34 172 -51 rquadto
83 -17 163 -17 rquadto
212 0 317 110 rquadto
105 110 105 335 rquadto
} def
/P$22 {
117 0 rlineto
0 710 rlineto
-117 0 rlineto
0 -710 rlineto
closepath
} def
/P$12 {
0 -70 -40 -113 rquadto
-40 -42 -106 -42 rquadto
-70 0 -114 39 rquadto
-44 39 -55 116 rquadto
317 0 rlineto
closepath
} def
/P$2p {
0 217 rlineto
259 0 rlineto
0 98 rlineto
-259 0 rlineto
0 415 rlineto
0 92 25 119 rquadto
25 27 103 27 rquadto
129 0 rlineto
0 104 rlineto
-129 0 rlineto
-145 0 -200 -54 rquadto
-55 -54 -55 -196 rquadto
0 -415 rlineto
-92 0 rlineto
0 -98 rlineto
92 0 rlineto
0 -217 rlineto
126 0 rlineto
closepath
} def
/P$8 {
210 0 331 136 rquadto
120 136 120 380 rquadto
0 240 -120 378 rquadto
-120 137 -331 137 rquadto
-212 0 -332 -137 rquadto
-119 -137 -119 -378 rquadto
0 -243 119 -380 rquadto
119 -136 332 -136 rquadto
} def
/P$3 {
-1 -132 -74 -211 rquadto
-72 -78 -191 -78 rquadto
-135 0 -217 75 rquadto
-81 75 -93 214 rquadto
576 0 rlineto
} def
/P$2k {
-50 128 -96 166 rquadto
-46 38 -125 38 rquadto
-93 0 rlineto
0 -96 rlineto
68 0 rlineto
48 0 75 -23 rquadto
26 -23 57 -107 rquadto
21 -53 rlineto
-287 -700 rlineto
123 0 rlineto
221 556 rlineto
221 -556 rlineto
125 0 rlineto
-312 776 rlineto
closepath
} def
/P$1i {
0 -137 -57 -216 rquadto
-57 -78 -157 -78 rquadto
-100 0 -157 78 rquadto
-57 78 -57 216 rquadto
0 139 57 217 rquadto
57 78 157 78 rquadto
100 0 157 -78 rquadto
57 -78 57 -217 rquadto
} def
/P$1c {
40 -67 100 -100 rquadto
60 -33 144 -33 rquadto
139 0 226 110 rquadto
87 110 87 290 rquadto
0 181 -87 292 rquadto
-87 110 -226 110 rquadto
-84 0 -144 -33 rquadto
-60 -33 -100 -102 rquadto
0 115 rlineto
-126 0 rlineto
0 -1064 rlineto
126 0 rlineto
0 414 rlineto
} def
/P$2h {
-1 -95 -53 -153 rquadto
-52 -57 -138 -57 rquadto
-98 0 -157 55 rquadto
-58 55 -67 155 rquadto
417 0 rlineto
closepath
} def
/P$1t {
0 195 -86 290 rquadto
-86 95 -264 95 rquadto
-67 0 -125 -9 rquadto
-58 -9 -113 -29 rquadto
0 -123 rlineto
54 31 108 45 rquadto
53 14 110 14 rquadto
123 0 185 -64 rquadto
61 -64 61 -194 rquadto
0 -62 rlineto
-39 67 -100 100 rquadto
-60 33 -145 33 rquadto
-140 0 -227 -107 rquadto
-86 -107 -86 -285 rquadto
0 -176 86 -284 rquadto
86 -107 227 -107 rquadto
84 0 145 33 rquadto
60 33 100 100 rquadto
0 -115 rlineto
125 0 rlineto
0 670 rlineto
} def
/P$1e {
-1 -103 -57 -164 rquadto
-56 -61 -148 -61 rquadto
-106 0 -169 60 rquadto
-63 60 -72 167 rquadto
448 -1 rlineto
} def
/P$23 {
117 0 rlineto
0 148 rlineto
-117 0 rlineto
0 -148 rlineto
} def
0 setlinewidth
[] 0 setdash
0 0 0 setrgbcolor
newpath
16956 358 moveto
P$0
fill
0 setlinewidth
[] 0 setdash
0 0 0 setrgbcolor
newpath
18996 716 moveto
P$1
fill
0 setlinewidth
[] 0 setdash
0 0 0 setrgbcolor
newpath
20010 1137 moveto
P$2
19850 1091 moveto
P$3
fill
0 setlinewidth
[] 0 setdash
0 0 0 setrgbcolor
newpath
21578 723 moveto
P$4
fill
0 setlinewidth
[] 0 setdash
0 0 0 setrgbcolor
newpath
22217 1175 moveto
P$5
22539 1109 moveto
P$6
fill
0 setlinewidth
[] 0 setdash
0 0 0 setrgbcolor
newpath
23396 716 moveto
P$1
fill
0 setlinewidth
[] 0 setdash
0 0 0 setrgbcolor
newpath
24410 1137 moveto
P$2
24250 1091 moveto
P$3
fill
0 setlinewidth
[] 0 setdash
0 0 0 setrgbcolor
newpath
25296 716 moveto
P$1
fill
0 setlinewidth
[] 0 setdash
0 0 0 setrgbcolor
newpath
26451 800 moveto
P$7
26451 662 moveto
P$8
fill
0 setlinewidth
[] 0 setdash
0 0 0 setrgbcolor
newpath
27668 303 moveto
P$9
fill
0 setlinewidth
[] 0 setdash
0 0 0 setrgbcolor
newpath
28817 1175 moveto
P$5
29139 1109 moveto
P$6
fill
0 setlinewidth
[] 0 setdash
0 0 0 setrgbcolor
newpath
29859 358 moveto
P$a
fill
0 setlinewidth
[] 0 setdash
0 0 0 setrgbcolor
newpath
31870 686 moveto
P$b
31870 303 moveto
P$c
fill
0 setlinewidth
[] 0 setdash
0 0 0 setrgbcolor
newpath
32376 358 moveto
P$d
fill
0 setlinewidth
[] 0 setdash
0 0 0 setrgbcolor
newpath
33370 686 moveto
P$b
33370 303 moveto
P$c
fill
0 setlinewidth
[] 0 setdash
0 0 0 setrgbcolor
newpath
35178 723 moveto
P$4
fill
0 setlinewidth
[] 0 setdash
0 0 0 setrgbcolor
newpath
35940 837 moveto
P$e
fill
0 setlinewidth
[] 0 setdash
0 0 0 setrgbcolor
newpath
36551 800 moveto
P$7
36551 662 moveto
P$8
fill
0 setlinewidth
[] 0 setdash
0 0 0 setrgbcolor
newpath
37175 686 moveto
P$f
fill
0 setlinewidth
[] 0 setdash
0 0 0 setrgbcolor
newpath
39517 836 moveto
P$g
38965 1180 moveto
P$h
fill
0 setlinewidth
[] 0 setdash
0 0 0 setrgbcolor
newpath
41196 716 moveto
P$1
fill
0 setlinewidth
[] 0 setdash
0 0 0 setrgbcolor
newpath
42210 1137 moveto
P$2
42050 1091 moveto
P$3
fill
0 setlinewidth
[] 0 setdash
0 0 0 setrgbcolor
newpath
43287 1077 moveto
P$i
fill
0 setlinewidth
[] 0 setdash
0 0 0 setrgbcolor
newpath
44196 716 moveto
P$1
fill
0 setlinewidth
[] 0 setdash
0 0 0 setrgbcolor
newpath
44751 800 moveto
P$7
44751 662 moveto
P$8
fill
0 setlinewidth
[] 0 setdash
0 0 0 setrgbcolor
newpath
46040 837 moveto
P$e
fill
0 setlinewidth
[] 0 setdash
0 0 0 setrgbcolor
newpath
47496 716 moveto
P$1
fill
0 setlinewidth
[] 0 setdash
0 0 0 setrgbcolor
newpath
48079 1762 moveto
P$j
fill
0 setlinewidth
[] 0 setdash
0 0 0 setrgbcolor
newpath
49396 716 moveto
P$k
49729 406 moveto
P$l
fill
0 setlinewidth
[] 0 setdash
0 0 0 setrgbcolor
newpath
51110 1137 moveto
P$2
50950 1091 moveto
P$3
fill
0 setlinewidth
[] 0 setdash
0 0 0 setrgbcolor
newpath
52135 875 moveto
P$m
fill
0.78 0.78 0.78 setrgbcolor
55500 35100 8050 4795 100 roundrect
closepath eofill
0.69 0.69 0.69 setrgbcolor
55400 35000 8100 4845 100 roundrect
closepath eofill
0.59 0.59 0.59 setrgbcolor
55300 34900 8150 4895 100 roundrect
closepath eofill
0.49 0.49 0.49 setrgbcolor
55200 34800 8200 4945 100 roundrect
closepath eofill
0.39 0.39 0.39 setrgbcolor
55100 34700 8250 4995 100 roundrect
closepath eofill
0.29 0.29 0.29 setrgbcolor
55000 34600 8300 5045 100 roundrect
closepath eofill
0.2 0.2 0.2 setrgbcolor
54900 34500 8350 5095 100 roundrect
closepath eofill
1 1 1 setrgbcolor
55500 35100 7750 4495 simplerect
closepath eofill
150 setlinewidth
0 0 0 setrgbcolor
55500 35100 7750 4495 simplerect
closepath stroke
0 setlinewidth
[] 0 setdash
0 0 0 setrgbcolor
newpath
29639 5005 moveto
P$n
fill
0 setlinewidth
[] 0 setdash
0 0 0 setrgbcolor
newpath
29817 5229 moveto
P$o
fill
0 setlinewidth
[] 0 setdash
0 0 0 setrgbcolor
newpath
31415 5252 moveto
P$p
fill
0 setlinewidth
[] 0 setdash
0 0 0 setrgbcolor
newpath
31984 5012 moveto
P$q
fill
0 setlinewidth
[] 0 setdash
0 0 0 setrgbcolor
newpath
33081 5610 moveto
P$r
32829 5529 moveto
P$s
fill
0 setlinewidth
[] 0 setdash
0 0 0 setrgbcolor
newpath
34026 5355 moveto
P$t
fill
0 setlinewidth
[] 0 setdash
0 0 0 setrgbcolor
newpath
35217 5229 moveto
P$u
35217 4930 moveto
P$v
fill
0 setlinewidth
[] 0 setdash
0 0 0 setrgbcolor
newpath
36387 5529 moveto
P$w
fill
0 setlinewidth
[] 0 setdash
0 0 0 setrgbcolor
newpath
36884 5012 moveto
P$q
fill
0 setlinewidth
[] 0 setdash
0 0 0 setrgbcolor
newpath
37981 5610 moveto
P$r
37729 5529 moveto
P$s
fill
0 setlinewidth
[] 0 setdash
0 0 0 setrgbcolor
newpath
38785 5437 moveto
P$x
fill
0 setlinewidth
[] 0 setdash
0 0 0 setrgbcolor
newpath
39421 4930 moveto
P$y
fill
0 setlinewidth
[] 0 setdash
0 0 0 setrgbcolor
newpath
39860 5649 moveto
P$z
40234 5557 moveto
P$10
fill
0 setlinewidth
[] 0 setdash
0 0 0 setrgbcolor
newpath
41035 5252 moveto
P$11
fill
0 setlinewidth
[] 0 setdash
0 0 0 setrgbcolor
newpath
42081 5610 moveto
P$r
41829 5529 moveto
P$12
fill
gsave
1 0.2254 scale
0.78 0.78 0.78 setrgbcolor
newpath
41956 46262 9456 0 360 arc
closepath eofill
grestore
gsave
1 0.2213 scale
0.69 0.69 0.69 setrgbcolor
newpath
41956 47123 9406 0 360 arc
closepath eofill
grestore
gsave
1 0.2171 scale
0.59 0.59 0.59 setrgbcolor
newpath
41956 48026 9356 0 360 arc
closepath eofill
grestore
gsave
1 0.2129 scale
0.49 0.49 0.49 setrgbcolor
newpath
41956 48975 9306 0 360 arc
closepath eofill
grestore
gsave
1 0.2086 scale
0.39 0.39 0.39 setrgbcolor
newpath
41956 49973 9256 0 360 arc
closepath eofill
grestore
gsave
1 0.2043 scale
0.29 0.29 0.29 setrgbcolor
newpath
41956 51024 9206 0 360 arc
closepath eofill
grestore
gsave
1 0.2 scale
0.2 0.2 0.2 setrgbcolor
newpath
41956 52132 9156 0 360 arc
closepath eofill
grestore
gsave
1 0.2254 scale
1 1 0.81 setrgbcolor
newpath
41656 44931 9456 0 360 arc
closepath eofill
150 setlinewidth
0.66 0 0.21 setrgbcolor
newpath
41656 44931 9456 0 360 arc
closepath stroke
grestore
0 setlinewidth
[] 0 setdash
0 0 0 setrgbcolor
newpath
34076 9847 moveto
P$13
fill
0 setlinewidth
[] 0 setdash
0 0 0 setrgbcolor
newpath
35025 10128 moveto
P$14
fill
0 setlinewidth
[] 0 setdash
0 0 0 setrgbcolor
newpath
35584 9913 moveto
P$15
35584 9807 moveto
P$16
fill
0 setlinewidth
[] 0 setdash
0 0 0 setrgbcolor
newpath
36115 9825 moveto
P$17
fill
0 setlinewidth
[] 0 setdash
0 0 0 setrgbcolor
newpath
38325 10128 moveto
P$18
fill
0 setlinewidth
[] 0 setdash
0 0 0 setrgbcolor
newpath
38575 10289 moveto
P$19
fill
0 setlinewidth
[] 0 setdash
0 0 0 setrgbcolor
newpath
40084 9972 moveto
P$1a
fill
0 setlinewidth
[] 0 setdash
0 0 0 setrgbcolor
newpath
41337 10208 moveto
P$1b
40909 9941 moveto
P$1c
fill
0 setlinewidth
[] 0 setdash
0 0 0 setrgbcolor
newpath
42343 10177 moveto
P$1d
42217 10139 moveto
P$1e
fill
0 setlinewidth
[] 0 setdash
0 0 0 setrgbcolor
newpath
43031 9942 moveto
P$1f
fill
0 setlinewidth
[] 0 setdash
0 0 0 setrgbcolor
newpath
43784 9913 moveto
P$15
43784 9807 moveto
P$16
fill
0 setlinewidth
[] 0 setdash
0 0 0 setrgbcolor
newpath
44776 9527 moveto
P$1g
fill
0 setlinewidth
[] 0 setdash
0 0 0 setrgbcolor
newpath
45309 10475 moveto
P$1h
45737 10208 moveto
P$1i
fill
0 setlinewidth
[] 0 setdash
0 0 0 setrgbcolor
newpath
46743 10177 moveto
P$1d
46617 10139 moveto
P$1e
fill
0 setlinewidth
[] 0 setdash
0 0 0 setrgbcolor
newpath
47284 9913 moveto
P$15
47284 9807 moveto
P$16
fill
0 setlinewidth
[] 0 setdash
0 0 0 setrgbcolor
newpath
48009 10475 moveto
P$1h
48437 10208 moveto
P$1i
fill
0 setlinewidth
[] 0 setdash
0 0 0 setrgbcolor
newpath
48787 9527 moveto
P$1j
fill
0 setlinewidth
[] 0 setdash
0 0 0 setrgbcolor
newpath
49743 10177 moveto
P$1d
49617 10139 moveto
P$1k
fill
gsave
1 0.2246 scale
0.78 0.78 0.78 setrgbcolor
newpath
52271 103488 9771 0 360 arc
closepath eofill
grestore
gsave
1 0.2206 scale
0.69 0.69 0.69 setrgbcolor
newpath
52271 105359 9721 0 360 arc
closepath eofill
grestore
gsave
1 0.2165 scale
0.59 0.59 0.59 setrgbcolor
newpath
52271 107320 9671 0 360 arc
closepath eofill
grestore
gsave
1 0.2125 scale
0.49 0.49 0.49 setrgbcolor
newpath
52271 109376 9621 0 360 arc
closepath eofill
grestore
gsave
1 0.2084 scale
0.39 0.39 0.39 setrgbcolor
newpath
52271 111536 9571 0 360 arc
closepath eofill
grestore
gsave
1 0.2042 scale
0.29 0.29 0.29 setrgbcolor
newpath
52271 113807 9521 0 360 arc
closepath eofill
grestore
gsave
1 0.2 scale
0.2 0.2 0.2 setrgbcolor
newpath
52271 116197 9471 0 360 arc
closepath eofill
grestore
gsave
1 0.2246 scale
1 1 0.81 setrgbcolor
newpath
51971 102152 9771 0 360 arc
closepath eofill
150 setlinewidth
0.66 0 0.21 setrgbcolor
newpath
51971 102152 9771 0 360 arc
closepath stroke
grestore
0 setlinewidth
[] 0 setdash
0 0 0 setrgbcolor
newpath
44041 22660 moveto
P$13
fill
0 setlinewidth
[] 0 setdash
0 0 0 setrgbcolor
newpath
44989 22941 moveto
P$14
fill
0 setlinewidth
[] 0 setdash
0 0 0 setrgbcolor
newpath
45549 22726 moveto
P$15
45549 22620 moveto
P$16
fill
0 setlinewidth
[] 0 setdash
0 0 0 setrgbcolor
newpath
46080 22638 moveto
P$17
fill
0 setlinewidth
[] 0 setdash
0 0 0 setrgbcolor
newpath
48289 22941 moveto
P$18
fill
0 setlinewidth
[] 0 setdash
0 0 0 setrgbcolor
newpath
48849 22726 moveto
P$15
48849 22620 moveto
P$16
fill
0 setlinewidth
[] 0 setdash
0 0 0 setrgbcolor
newpath
50089 22941 moveto
P$18
fill
0 setlinewidth
[] 0 setdash
0 0 0 setrgbcolor
newpath
51241 22660 moveto
P$13
fill
0 setlinewidth
[] 0 setdash
0 0 0 setrgbcolor
newpath
52208 22990 moveto
P$1d
52082 22952 moveto
P$1e
fill
0 setlinewidth
[] 0 setdash
0 0 0 setrgbcolor
newpath
53089 22941 moveto
P$18
fill
0 setlinewidth
[] 0 setdash
0 0 0 setrgbcolor
newpath
53841 22660 moveto
P$13
fill
0 setlinewidth
[] 0 setdash
0 0 0 setrgbcolor
newpath
54152 22638 moveto
P$1l
54152 22340 moveto
P$1m
fill
0 setlinewidth
[] 0 setdash
0 0 0 setrgbcolor
newpath
54577 22421 moveto
P$1n
fill
0 setlinewidth
[] 0 setdash
0 0 0 setrgbcolor
newpath
54952 22638 moveto
P$1l
54952 22340 moveto
P$1m
fill
0 setlinewidth
[] 0 setdash
0 0 0 setrgbcolor
newpath
55163 22638 moveto
P$1o
56608 22990 moveto
P$1d
56482 22952 moveto
P$1e
fill
0 setlinewidth
[] 0 setdash
0 0 0 setrgbcolor
newpath
57741 22660 moveto
P$13
fill
0 setlinewidth
[] 0 setdash
0 0 0 setrgbcolor
newpath
58177 22421 moveto
P$1n
fill
0 setlinewidth
[] 0 setdash
0 0 0 setrgbcolor
newpath
58900 23020 moveto
P$1p
59152 22966 moveto
P$1q
fill
0 setlinewidth
[] 0 setdash
0 0 0 setrgbcolor
newpath
59477 22421 moveto
P$1n
fill
0 setlinewidth
[] 0 setdash
0 0 0 setrgbcolor
newpath
60341 22660 moveto
P$1r
fill
gsave
1 0.2164 scale
0.78 0.78 0.78 setrgbcolor
newpath
24340 162498 14640 0 360 arc
closepath eofill
grestore
gsave
1 0.2137 scale
0.69 0.69 0.69 setrgbcolor
newpath
24340 164540 14590 0 360 arc
closepath eofill
grestore
gsave
1 0.211 scale
0.59 0.59 0.59 setrgbcolor
newpath
24340 166648 14540 0 360 arc
closepath eofill
grestore
gsave
1 0.2083 scale
0.49 0.49 0.49 setrgbcolor
newpath
24340 168827 14490 0 360 arc
closepath eofill
grestore
gsave
1 0.2055 scale
0.39 0.39 0.39 setrgbcolor
newpath
24340 171078 14440 0 360 arc
closepath eofill
grestore
gsave
1 0.2028 scale
0.29 0.29 0.29 setrgbcolor
newpath
24340 173407 14390 0 360 arc
closepath eofill
grestore
gsave
1 0.2 scale
0.2 0.2 0.2 setrgbcolor
newpath
24340 175817 14340 0 360 arc
closepath eofill
grestore
gsave
1 0.2164 scale
1 1 0.81 setrgbcolor
newpath
24040 161112 14640 0 360 arc
closepath eofill
150 setlinewidth
0.66 0 0.21 setrgbcolor
newpath
24040 161112 14640 0 360 arc
closepath stroke
grestore
0 setlinewidth
[] 0 setdash
0 0 0 setrgbcolor
newpath
10926 34936 moveto
P$1s
11051 35233 moveto
P$1t
fill
0 setlinewidth
[] 0 setdash
0 0 0 setrgbcolor
newpath
11978 34914 moveto
P$1d
11851 34876 moveto
P$1e
fill
0 setlinewidth
[] 0 setdash
0 0 0 setrgbcolor
newpath
12347 34345 moveto
P$1n
fill
0 setlinewidth
[] 0 setdash
0 0 0 setrgbcolor
newpath
13122 34562 moveto
P$1l
13122 34264 moveto
P$1m
fill
0 setlinewidth
[] 0 setdash
0 0 0 setrgbcolor
newpath
14059 34865 moveto
P$18
fill
0 setlinewidth
[] 0 setdash
0 0 0 setrgbcolor
newpath
14711 34264 moveto
P$1u
15019 34650 moveto
P$15
15019 34543 moveto
P$16
fill
0 setlinewidth
[] 0 setdash
0 0 0 setrgbcolor
newpath
16319 34650 moveto
P$15
16319 34543 moveto
P$16
fill
0 setlinewidth
[] 0 setdash
0 0 0 setrgbcolor
newpath
17559 34865 moveto
P$18
fill
0 setlinewidth
[] 0 setdash
0 0 0 setrgbcolor
newpath
18344 35212 moveto
P$1h
18772 34945 moveto
P$1i
fill
0 setlinewidth
[] 0 setdash
0 0 0 setrgbcolor
newpath
19419 34650 moveto
P$15
19419 34543 moveto
P$16
fill
0 setlinewidth
[] 0 setdash
0 0 0 setrgbcolor
newpath
20144 35212 moveto
P$1h
20572 34945 moveto
P$1i
fill
0 setlinewidth
[] 0 setdash
0 0 0 setrgbcolor
newpath
20909 35026 moveto
P$19
fill
0 setlinewidth
[] 0 setdash
0 0 0 setrgbcolor
newpath
21822 34264 moveto
P$1j
fill
0 setlinewidth
[] 0 setdash
0 0 0 setrgbcolor
newpath
22470 34943 moveto
P$1p
22722 34890 moveto
P$1q
fill
0 setlinewidth
[] 0 setdash
0 0 0 setrgbcolor
newpath
23365 34679 moveto
P$1f
fill
0 setlinewidth
[] 0 setdash
0 0 0 setrgbcolor
newpath
24326 34678 moveto
P$1v
23898 34945 moveto
P$1w
fill
0 setlinewidth
[] 0 setdash
0 0 0 setrgbcolor
newpath
25378 34914 moveto
P$1d
25251 34876 moveto
P$1e
fill
0 setlinewidth
[] 0 setdash
0 0 0 setrgbcolor
newpath
25533 34562 moveto
P$1x
fill
0 setlinewidth
[] 0 setdash
0 0 0 setrgbcolor
newpath
26322 34562 moveto
P$1l
26322 34264 moveto
P$1m
fill
0 setlinewidth
[] 0 setdash
0 0 0 setrgbcolor
newpath
27173 34592 moveto
P$1y
fill
0 setlinewidth
[] 0 setdash
0 0 0 setrgbcolor
newpath
28078 34914 moveto
P$1d
27951 34876 moveto
P$1e
fill
0 setlinewidth
[] 0 setdash
0 0 0 setrgbcolor
newpath
29319 34709 moveto
P$1a
fill
0 setlinewidth
[] 0 setdash
0 0 0 setrgbcolor
newpath
30370 34943 moveto
P$1p
30622 34890 moveto
P$1q
fill
0 setlinewidth
[] 0 setdash
0 0 0 setrgbcolor
newpath
31459 34865 moveto
P$18
fill
0 setlinewidth
[] 0 setdash
0 0 0 setrgbcolor
newpath
31709 35026 moveto
P$19
fill
0 setlinewidth
[] 0 setdash
0 0 0 setrgbcolor
newpath
33011 34264 moveto
P$1u
33370 34943 moveto
P$1p
33622 34890 moveto
P$1q
fill
0 setlinewidth
[] 0 setdash
0 0 0 setrgbcolor
newpath
34373 34592 moveto
P$1y
fill
0 setlinewidth
[] 0 setdash
0 0 0 setrgbcolor
newpath
34747 34345 moveto
P$1n
fill
0 setlinewidth
[] 0 setdash
0 0 0 setrgbcolor
newpath
35109 35026 moveto
P$19
fill
0 setlinewidth
[] 0 setdash
0 0 0 setrgbcolor
newpath
36465 34679 moveto
P$1f
fill
0 setlinewidth
[] 0 setdash
0 0 0 setrgbcolor
newpath
37178 34914 moveto
P$1d
37051 34876 moveto
P$1e
fill
0 setlinewidth
[] 0 setdash
0 0 0 setrgbcolor
newpath
37865 34679 moveto
P$1z
fill
gsave
1 0.2247 scale
0.78 0.78 0.78 setrgbcolor
newpath
52225 156360 9725 0 360 arc
closepath eofill
grestore
gsave
1 0.2207 scale
0.69 0.69 0.69 setrgbcolor
newpath
52225 159199 9675 0 360 arc
closepath eofill
grestore
gsave
1 0.2166 scale
0.59 0.59 0.59 setrgbcolor
newpath
52225 162174 9625 0 360 arc
closepath eofill
grestore
gsave
1 0.2125 scale
0.49 0.49 0.49 setrgbcolor
newpath
52225 165295 9575 0 360 arc
closepath eofill
grestore
gsave
1 0.2084 scale
0.39 0.39 0.39 setrgbcolor
newpath
52225 168574 9525 0 360 arc
closepath eofill
grestore
gsave
1 0.2042 scale
0.29 0.29 0.29 setrgbcolor
newpath
52225 172021 9475 0 360 arc
closepath eofill
grestore
gsave
1 0.2 scale
0.2 0.2 0.2 setrgbcolor
newpath
52225 175652 9425 0 360 arc
closepath eofill
grestore
gsave
1 0.2247 scale
1 1 0.81 setrgbcolor
newpath
51925 155025 9725 0 360 arc
closepath eofill
150 setlinewidth
0.66 0 0.21 setrgbcolor
newpath
51925 155025 9725 0 360 arc
closepath stroke
grestore
0 setlinewidth
[] 0 setdash
0 0 0 setrgbcolor
newpath
44061 34903 moveto
P$1s
44186 35200 moveto
P$1t
fill
0 setlinewidth
[] 0 setdash
0 0 0 setrgbcolor
newpath
45113 34881 moveto
P$1d
44986 34843 moveto
P$1e
fill
0 setlinewidth
[] 0 setdash
0 0 0 setrgbcolor
newpath
45482 34312 moveto
P$1n
fill
0 setlinewidth
[] 0 setdash
0 0 0 setrgbcolor
newpath
46854 34676 moveto
P$1a
fill
0 setlinewidth
[] 0 setdash
0 0 0 setrgbcolor
newpath
47854 34617 moveto
P$15
47854 34510 moveto
P$16
fill
0 setlinewidth
[] 0 setdash
0 0 0 setrgbcolor
newpath
48946 34551 moveto
P$13
fill
0 setlinewidth
[] 0 setdash
0 0 0 setrgbcolor
newpath
49382 34312 moveto
P$1n
fill
0 setlinewidth
[] 0 setdash
0 0 0 setrgbcolor
newpath
50708 34559 moveto
P$1y
fill
0 setlinewidth
[] 0 setdash
0 0 0 setrgbcolor
newpath
51400 34646 moveto
P$1f
fill
0 setlinewidth
[] 0 setdash
0 0 0 setrgbcolor
newpath
51754 34617 moveto
P$15
51754 34510 moveto
P$16
fill
0 setlinewidth
[] 0 setdash
0 0 0 setrgbcolor
newpath
52285 34529 moveto
P$17
fill
0 setlinewidth
[] 0 setdash
0 0 0 setrgbcolor
newpath
53961 34645 moveto
P$1v
53533 34912 moveto
P$1w
fill
0 setlinewidth
[] 0 setdash
0 0 0 setrgbcolor
newpath
55013 34881 moveto
P$1d
54886 34843 moveto
P$1e
fill
0 setlinewidth
[] 0 setdash
0 0 0 setrgbcolor
newpath
55761 34645 moveto
P$1v
55333 34912 moveto
P$1w
fill
0 setlinewidth
[] 0 setdash
0 0 0 setrgbcolor
newpath
57194 34832 moveto
P$14
fill
0 setlinewidth
[] 0 setdash
0 0 0 setrgbcolor
newpath
57754 34617 moveto
P$15
57754 34510 moveto
P$16
fill
0 setlinewidth
[] 0 setdash
0 0 0 setrgbcolor
newpath
58344 34993 moveto
P$19
fill
0 setlinewidth
[] 0 setdash
0 0 0 setrgbcolor
newpath
59700 34646 moveto
P$1f
fill
0 setlinewidth
[] 0 setdash
0 0 0 setrgbcolor
newpath
60246 34551 moveto
P$1r
fill
0.98 0.98 0.47 setrgbcolor
newpath
24200 20195 moveto
24200 25735 lineto
38700 25735 lineto
38700 21195 lineto
37700 20195 lineto
24200 20195 lineto
closepath eofill
100 setlinewidth
0.66 0 0.21 setrgbcolor
newpath
24200 20195 moveto
24200 25735 lineto
38700 25735 lineto
38700 21195 lineto
37700 20195 lineto
24200 20195 lineto
stroke
0.98 0.98 0.47 setrgbcolor
newpath
37700 20195 moveto
37700 21195 lineto
38700 21195 lineto
37700 20195 lineto
closepath eofill
100 setlinewidth
0.66 0 0.21 setrgbcolor
newpath
37700 20195 moveto
37700 21195 lineto
38700 21195 lineto
37700 20195 lineto
stroke
0 setlinewidth
[] 0 setdash
0 0 0 setrgbcolor
newpath
24796 20953 moveto
P$20
fill
0 setlinewidth
[] 0 setdash
0 0 0 setrgbcolor
newpath
26214 21472 moveto
P$21
fill
0 setlinewidth
[] 0 setdash
0 0 0 setrgbcolor
newpath
26421 21191 moveto
P$22
26421 20914 moveto
P$23
fill
0 setlinewidth
[] 0 setdash
0 0 0 setrgbcolor
newpath
27175 21211 moveto
P$24
fill
0 setlinewidth
[] 0 setdash
0 0 0 setrgbcolor
newpath
28290 21298 moveto
P$25
27892 21547 moveto
P$26
fill
0 setlinewidth
[] 0 setdash
0 0 0 setrgbcolor
newpath
28945 21544 moveto
P$27
29178 21495 moveto
P$28
fill
0 setlinewidth
[] 0 setdash
0 0 0 setrgbcolor
newpath
29537 20989 moveto
P$29
fill
0 setlinewidth
[] 0 setdash
0 0 0 setrgbcolor
newpath
30245 21544 moveto
P$27
30478 21495 moveto
P$28
fill
0 setlinewidth
[] 0 setdash
0 0 0 setrgbcolor
newpath
31575 21211 moveto
P$24
fill
0 setlinewidth
[] 0 setdash
0 0 0 setrgbcolor
newpath
32414 21472 moveto
P$21
fill
0 setlinewidth
[] 0 setdash
0 0 0 setrgbcolor
newpath
32898 21272 moveto
P$2a
32898 21173 moveto
P$2b
fill
0 setlinewidth
[] 0 setdash
0 0 0 setrgbcolor
newpath
33410 21620 moveto
P$2c
fill
0 setlinewidth
[] 0 setdash
0 0 0 setrgbcolor
newpath
34221 20914 moveto
P$2d
fill
0 setlinewidth
[] 0 setdash
0 0 0 setrgbcolor
newpath
34990 21298 moveto
P$25
34592 21547 moveto
P$26
fill
0 setlinewidth
[] 0 setdash
0 0 0 setrgbcolor
newpath
36232 21547 moveto
P$2e
35835 21298 moveto
P$2f
fill
0 setlinewidth
[] 0 setdash
0 0 0 setrgbcolor
newpath
37131 21517 moveto
P$2g
37014 21483 moveto
P$2h
fill
0 setlinewidth
[] 0 setdash
0 0 0 setrgbcolor
newpath
25245 23057 moveto
P$27
25478 23009 moveto
P$28
fill
0 setlinewidth
[] 0 setdash
0 0 0 setrgbcolor
newpath
26234 22730 moveto
P$2i
fill
0 setlinewidth
[] 0 setdash
0 0 0 setrgbcolor
newpath
26934 22730 moveto
P$2i
fill
0 setlinewidth
[] 0 setdash
0 0 0 setrgbcolor
newpath
27731 23030 moveto
P$2g
27614 22996 moveto
P$2j
fill
0 setlinewidth
[] 0 setdash
0 0 0 setrgbcolor
newpath
28375 22724 moveto
P$24
fill
0 setlinewidth
[] 0 setdash
0 0 0 setrgbcolor
newpath
29075 22724 moveto
P$24
fill
0 setlinewidth
[] 0 setdash
0 0 0 setrgbcolor
newpath
29321 22704 moveto
P$22
29321 22427 moveto
P$23
fill
0 setlinewidth
[] 0 setdash
0 0 0 setrgbcolor
newpath
30132 23060 moveto
P$2e
29735 22812 moveto
P$2f
fill
0 setlinewidth
[] 0 setdash
0 0 0 setrgbcolor
newpath
30421 22427 moveto
P$2d
fill
0 setlinewidth
[] 0 setdash
0 0 0 setrgbcolor
newpath
31331 23030 moveto
P$2g
31214 22996 moveto
P$2j
fill
0 setlinewidth
[] 0 setdash
0 0 0 setrgbcolor
newpath
32531 23030 moveto
P$2g
32414 22996 moveto
P$2j
fill
0 setlinewidth
[] 0 setdash
0 0 0 setrgbcolor
newpath
33045 23057 moveto
P$27
33278 23009 moveto
P$28
fill
0 setlinewidth
[] 0 setdash
0 0 0 setrgbcolor
newpath
33975 22724 moveto
P$24
fill
0 setlinewidth
[] 0 setdash
0 0 0 setrgbcolor
newpath
34221 22704 moveto
P$22
34221 22427 moveto
P$23
fill
0 setlinewidth
[] 0 setdash
0 0 0 setrgbcolor
newpath
34521 22427 moveto
P$2d
fill
0 setlinewidth
[] 0 setdash
0 0 0 setrgbcolor
newpath
35118 23480 moveto
P$2k
fill
0 setlinewidth
[] 0 setdash
0 0 0 setrgbcolor
newpath
25203 23942 moveto
P$2l
fill
0 setlinewidth
[] 0 setdash
0 0 0 setrgbcolor
newpath
25410 24647 moveto
P$2c
fill
0 setlinewidth
[] 0 setdash
0 0 0 setrgbcolor
newpath
26814 24498 moveto
P$2m
fill
0 setlinewidth
[] 0 setdash
0 0 0 setrgbcolor
newpath
27345 24570 moveto
P$27
27578 24522 moveto
P$28
fill
0 setlinewidth
[] 0 setdash
0 0 0 setrgbcolor
newpath
27810 24647 moveto
P$2c
fill
0 setlinewidth
[] 0 setdash
0 0 0 setrgbcolor
newpath
28737 24016 moveto
P$29
fill
0 setlinewidth
[] 0 setdash
0 0 0 setrgbcolor
newpath
29714 24498 moveto
P$21
fill
0 setlinewidth
[] 0 setdash
0 0 0 setrgbcolor
newpath
30531 24544 moveto
P$2g
30414 24509 moveto
P$2j
fill
0 setlinewidth
[] 0 setdash
0 0 0 setrgbcolor
newpath
31314 24498 moveto
P$2m
fill
0 setlinewidth
[] 0 setdash
0 0 0 setrgbcolor
newpath
31637 24016 moveto
P$29
fill
0 setlinewidth
[] 0 setdash
0 0 0 setrgbcolor
newpath
32021 24217 moveto
P$22
32021 23941 moveto
P$23
fill
0 setlinewidth
[] 0 setdash
0 0 0 setrgbcolor
newpath
32834 24244 moveto
P$2i
fill
0 setlinewidth
[] 0 setdash
0 0 0 setrgbcolor
newpath
33345 24570 moveto
P$27
33578 24522 moveto
P$28
fill
0 setlinewidth
[] 0 setdash
0 0 0 setrgbcolor
newpath
33937 24016 moveto
P$29
fill
0 setlinewidth
[] 0 setdash
0 0 0 setrgbcolor
newpath
34931 24544 moveto
P$2g
34814 24509 moveto
P$2j
fill
0 setlinewidth
[] 0 setdash
0 0 0 setrgbcolor
newpath
35590 24325 moveto
P$25
35192 24573 moveto
P$26
fill
0 setlinewidth
[] 0 setdash
0 0 0 setrgbcolor
newpath
35904 23942 moveto
P$2n
fill
0.78 0.78 0.78 setrgbcolor
newpath
3650 7345 800 0 360 arc
closepath eofill
0.69 0.69 0.69 setrgbcolor
newpath
3650 7345 750 0 360 arc
closepath eofill
0.59 0.59 0.59 setrgbcolor
newpath
3650 7345 700 0 360 arc
closepath eofill
0.49 0.49 0.49 setrgbcolor
newpath
3650 7345 650 0 360 arc
closepath eofill
0.39 0.39 0.39 setrgbcolor
newpath
3650 7345 600 0 360 arc
closepath eofill
0.29 0.29 0.29 setrgbcolor
newpath
3650 7345 550 0 360 arc
closepath eofill
0.2 0.2 0.2 setrgbcolor
newpath
3650 7345 500 0 360 arc
closepath eofill
1 1 0.81 setrgbcolor
newpath
3350 7045 800 0 360 arc
closepath eofill
150 setlinewidth
0.66 0 0.21 setrgbcolor
newpath
3350 7045 800 0 360 arc
closepath stroke
150 setlinewidth
0.66 0 0.21 setrgbcolor
newpath
3350 7845 moveto
3350 10545 lineto
2050 8645 moveto
4650 8645 lineto
3350 10545 moveto
2050 12045 lineto
3350 10545 moveto
4650 12045 lineto
stroke
0 setlinewidth
[] 0 setdash
0 0 0 setrgbcolor
newpath
1350 12907 moveto
P$2o
fill
0 setlinewidth
[] 0 setdash
0 0 0 setrgbcolor
newpath
1756 12912 moveto
P$1n
fill
0 setlinewidth
[] 0 setdash
0 0 0 setrgbcolor
newpath
2118 13593 moveto
P$19
fill
0 setlinewidth
[] 0 setdash
0 0 0 setrgbcolor
newpath
3535 13244 moveto
P$1v
3107 13512 moveto
P$1w
fill
0 setlinewidth
[] 0 setdash
0 0 0 setrgbcolor
newpath
4587 13480 moveto
P$1d
4460 13443 moveto
P$1e
fill
0 setlinewidth
[] 0 setdash
0 0 0 setrgbcolor
newpath
5468 13432 moveto
P$18
fill
0 setlinewidth
[] 0 setdash
0 0 0 setrgbcolor
newpath
5856 12912 moveto
P$2p
fill
0.78 0.78 0.78 setrgbcolor
newpath
66650 7345 800 0 360 arc
closepath eofill
0.69 0.69 0.69 setrgbcolor
newpath
66650 7345 750 0 360 arc
closepath eofill
0.59 0.59 0.59 setrgbcolor
newpath
66650 7345 700 0 360 arc
closepath eofill
0.49 0.49 0.49 setrgbcolor
newpath
66650 7345 650 0 360 arc
closepath eofill
0.39 0.39 0.39 setrgbcolor
newpath
66650 7345 600 0 360 arc
closepath eofill
0.29 0.29 0.29 setrgbcolor
newpath
66650 7345 550 0 360 arc
closepath eofill
0.2 0.2 0.2 setrgbcolor
newpath
66650 7345 500 0 360 arc
closepath eofill
1 1 0.81 setrgbcolor
newpath
66350 7045 800 0 360 arc
closepath eofill
150 setlinewidth
0.66 0 0.21 setrgbcolor
newpath
66350 7045 800 0 360 arc
closepath stroke
150 setlinewidth
0.66 0 0.21 setrgbcolor
newpath
66350 7845 moveto
66350 10545 lineto
65050 8645 moveto
67650 8645 lineto
66350 10545 moveto
65050 12045 lineto
66350 10545 moveto
67650 12045 lineto
stroke
0 setlinewidth
[] 0 setdash
0 0 0 setrgbcolor
newpath
65600 12907 moveto
P$2o
fill
0 setlinewidth
[] 0 setdash
0 0 0 setrgbcolor
newpath
66006 12912 moveto
P$1n
fill
0 setlinewidth
[] 0 setdash
0 0 0 setrgbcolor
newpath
66729 13510 moveto
P$1p
66981 13457 moveto
P$1q
fill
0 setlinewidth
[] 0 setdash
0 0 0 setrgbcolor
newpath
67570 12830 moveto
P$1u
67970 12830 moveto
P$1u
fill
100 setlinewidth
0.66 0 0.21 setrgbcolor
newpath
47498 24912 moveto
43063 26772 36188 29655 31027 31819 curveto
stroke
0.66 0 0.21 setrgbcolor
newpath
30564 32013 moveto
984 21 rlineto
-523 -214 rlineto
214 -523 rlineto
-676 716 rlineto
30564 32013 lineto
closepath eofill
100 setlinewidth
0.66 0 0.21 setrgbcolor
newpath
30564 32013 moveto
984 21 rlineto
-523 -214 rlineto
214 -523 rlineto
-676 716 rlineto
30564 32013 lineto
closepath stroke
100 setlinewidth
0.66 0 0.21 setrgbcolor
newpath
51950 25164 moveto
51950 27119 51950 30027 51950 32127 curveto
stroke
0.66 0 0.21 setrgbcolor
newpath
51950 32642 moveto
400 -900 rlineto
-400 400 rlineto
-400 -400 rlineto
400 900 rlineto
51950 32642 lineto
closepath eofill
100 setlinewidth
0.66 0 0.21 setrgbcolor
newpath
51950 32642 moveto
400 -900 rlineto
-400 400 rlineto
-400 -400 rlineto
400 900 rlineto
51950 32642 lineto
closepath stroke
100 setlinewidth
0.66 0 0.21 setrgbcolor
newpath
6118 10145 moveto
14635 10145 23151 10145 31668 10145 curveto
stroke
0.66 0 0.21 setrgbcolor
newpath
32177 10145 moveto
-900 -400 rlineto
400 400 rlineto
-400 400 rlineto
900 -400 rlineto
32177 10145 lineto
closepath eofill
100 setlinewidth
0.66 0 0.21 setrgbcolor
newpath
32177 10145 moveto
-900 -400 rlineto
400 400 rlineto
-400 400 rlineto
900 -400 rlineto
32177 10145 lineto
closepath stroke
100 setlinewidth
0.66 0 0.21 setrgbcolor
newpath
64832 10145 moveto
60426 10145 56020 10145 51615 10145 curveto
stroke
0.66 0 0.21 setrgbcolor
newpath
51105 10145 moveto
899 400 rlineto
-400 -400 rlineto
400 -400 rlineto
-899 400 rlineto
51105 10145 lineto
closepath eofill
100 setlinewidth
0.66 0 0.21 setrgbcolor
newpath
51105 10145 moveto
899 400 rlineto
-400 -400 rlineto
400 -400 rlineto
-899 400 rlineto
51105 10145 lineto
closepath stroke
100 setlinewidth
0.66 0 0.21 setrgbcolor
newpath
64834 12378 moveto
64357 12992 63808 13644 63250 14195 curveto
60834 16582 57754 18899 55422 20533 curveto
stroke
0.66 0 0.21 setrgbcolor
newpath
54995 20830 moveto
967 -186 rlineto
-556 -99 rlineto
99 -556 rlineto
-509 842 rlineto
54995 20830 lineto
closepath eofill
100 setlinewidth
0.66 0 0.21 setrgbcolor
newpath
54995 20830 moveto
967 -186 rlineto
-556 -99 rlineto
99 -556 rlineto
-509 842 rlineto
54995 20830 lineto
closepath stroke
grestore
showpage
%plantuml done
%%EOF
